plan_id,state_id,name,slug,type_1,type_2,type_3_key,type_3_name,state_abbr,state_name,website,plan_phone,address_line_1,address_line_2,city_state_zip,phone,toll_free,fax,email,home_url,offering_material_url,enrollment_material_url,online_account_access_url,general_performance_url,residency,residency_details,pm_name,im_name
1001,1,CollegeCounts 529 Fund,collegecounts-529-fund,ALABAMA - STATE TREASURER YOUNG BOOZER,529 Savings Plan,direct_sold,Direct Sold,AL,Alabama,http://www.collegecounts529.com/,866-529-2228,PO Box 85290,,"Lincoln, NE 68501-5290",866-529-2228,866-529-2228,402-323-1797,,www.collegecounts529.com/,www.collegecounts529.com/accountsetup.asp,www.collegecounts529.com/pre_online_enrollment.asp,csp.ubtrust.com/paweb/logins/login.aspx?planname=al,www.collegecounts529.com/performance.asp,No,No state residency requirements.,Union Bank & Trust Company,Multiple Investment Managers
1002,1,CollegeCounts 529 Fund Advisor Plan,collegecounts-529-fund-advisor-plan,ALABAMA - STATE TREASURER YOUNG BOOZER,529 Savings Plan,advisor_sold,Advisor Sold,AL,Alabama,http://www.CollegeCounts529advisor.com/,866-529-2228,PO Box 85290,,"Lincoln, NE 68501-5290",866-529-2228,866-529-2228,402-323-1797,,www.collegecounts529advisor.com/,www.collegecounts529advisor.com/pdf/pds.pdf,www.collegecounts529advisor.com/accountsetup.asp,csp.ubtrust.com/paweb/logins/login.aspx?planname=aladv,www.collegecounts529advisor.com/performance.asp,No,No state residency requirements.,Union Bank & Trust Company,Multiple Investment Managers
1003,1,"Prepaid Affordable College Tuition Program - Enrollment CLOSED December 31, 2008 - Prepaid Plan",prepaid-affordable-college-tuition-program-enrollment-closed-december-31-2008-prepaid-plan,ALABAMA - STATE TREASURER YOUNG BOOZER,529 Prepaid Plan,prepaid_plan,Prepaid Plan,AL,Alabama,http://www.treasury.alabama.gov/pact/index.html,1-800-252-7228,P.O. Box 12865,,"Birmingham, AL 35202",1-800-252-7228,1-800-252-7228,1-800-830-7390,ala.pact@treasury.alabama.gov,www.treasury.alabama.gov/pact/index.html,www.treasury.alabama.gov/pact/apply.htm,www.treasury.alabama.gov/pact/apply.htm,www.treasury.alabama.gov/pact/access_account.htm,,Unknown,"At this time, residency information has not been added for this plan.","Alabama Prepaid Board,Alabama Prepaid Board","Alabama Prepaid Board,Multiple Managers"
1004,2,UA College Savings Plan,ua-college-savings-plan,ALASKA - EDUCATION TRUST OF ALASKA,529 Savings Plan,direct_sold,Direct Sold,AK,Alaska,http://www.uacollegesavings.com,1-800-478-0003,PO Box 17479,,"Baltimore, MD 21297-1479",1-800-478-0003,1-800-478-0003,,info@uacollegesavings.com,www.uacollegesavings.com/,www.uacollegesavings.com/,www.uacollegesavings.com/public/ua529/Open-An-Account,www3.troweprice.com/aaweb1/accountAccess/publicLogin.do?pdurl=/aaweb1/accountAccess/ua529.do,www.uacollegesavings.com/public/ua529/Our-Plan/Performance,No,No state residency requirements.,T. Rowe Price,T. Rowe Price
1005,2,T. Rowe Price College Savings Plan,t-rowe-price-college-savings-plan,ALASKA - EDUCATION TRUST OF ALASKA,529 Savings Plan,direct_sold,Direct Sold,AK,Alaska,http://www.price529.com,866-521-1894,PO Box 17300,,"Baltimore, MD 21298-8670",866-521-1894,866-521-1894,,collegesavings@troweprice.com,www.price529.com/,www3.troweprice.com/retailtools3/literatureRequest/public/secure/litPdfDownload.do?pdfContentId=ec61116e93d0b110VgnVCM1000001bde400aRCRD&agreement=notRequired&scn=takeAction&pdfName=trp529Disclosure.pdf,www3.financialtrans.com/tf/FANWeb?tx=Disclaim&cz=d19171513001908141300112715&returnURL=NASU,www3.troweprice.com/aaweb1/accountAccess/publicLogin.do?pdurl=/aaweb1/accountAccess/index.do,"www.troweprice.com/common/indexHtml3/0,0,htmlid=103,00.html?src=n529acq_ExistingCustomers",No,No state residency requirements.,T. Rowe Price,T. Rowe Price
1006,2,John Hancock Freedom 529,john-hancock-freedom-529,ALASKA - EDUCATION TRUST OF ALASKA,529 Savings Plan,advisor_sold,Advisor Sold,AK,Alaska,http://johnhancockfreedom529.com,1-866-222-7498,PO Box 17603,,"Baltimore, MD 21297-1603",1-866-222-7498,1-866-222-7498,,,johnhancockfreedom529.com/,johnhancockfreedom529.com/,www.johnhancockfreedom529.com/public/secure/inforequest/page/,www3.financialtrans.com/tf/FANWeb?tx=Disclaim&cz=81200132011080504,www.johnhancockfreedom529.com/public/site/performance/daily/,No,No state residency requirements.,"T. Rowe Price,T. Rowe Price,T. Rowe Price,T. Rowe Price,T. Rowe Price,T. Rowe Price,T. Rowe Price,T. Rowe Price,T. Rowe Price","American Funds,Davis,Franklin Templeton Investments,Jennison Associates LLC,John Hancock Investment Management Services,Multiple Managers,OppenheimerFunds Inc.,PIMCO Advisors Distributors,T. Rowe Price"
1007,5,The Gift College Investing Plan,the-gift-college-investing-plan,ARKANSAS - THE ARKANSAS 529 PLAN REVIEW COMMITTEE,529 Savings Plan,direct_sold,Direct Sold,AR,Arkansas,http://www.thegiftplan.com/content/home.html,1-800-587-7301,P.O. Box 219376,,"Kansas City, MO 64121-9376",1-800-587-7301,1-800-587-7301,,clientservice@thegiftplan.com,www.thegiftplan.com/content/home.html,www.thegiftplan.com/content/downloadorrequestanenrollmentkit.html,www.thegiftplan.com/artpl/coenroll/start.do,www.thegiftplan.com/artpl/auth/loginFormAction.do?tplcb=%2Fartpl%2Facctmaint%2FacctList.do,www.thegiftplan.com/artpl/fundperform/fundPricePerform.do,No,No state residency requirements.,"Ascensus Broker Dealer Services Inc.,Ascensus Broker Dealer Services Inc.","Ascensus Broker Dealer Services Inc.,The Vanguard Group®"
1008,4,College Savings Bank CollegeSure® CD,college-savings-bank-collegesure-cd,ARIZONA - ARIZONA COMMISSION FOR POSTSECONDARY EDUCATION,529 Savings Plan,direct_sold,Direct Sold,AZ,Arizona,http://collegesavings.com/arizona/,1-800-888-2723,"AFCSP
c/o College Savings Bank",P.O. Box 3769,"Princeton, NJ 08543",1-800-888-2723,1-800-888-2723,,info@collegesavings.com,collegesavings.com/arizona/,,collegesavings.com/arizona/enroll.csb,,,No,No state residency requirements.,College Savings Bank,College Savings Bank
1009,4,The Fidelity Arizona College Savings Plan,the-fidelity-arizona-college-savings-plan,ARIZONA - ARIZONA COMMISSION FOR POSTSECONDARY EDUCATION,529 Savings Plan,direct_sold,Direct Sold,AZ,Arizona,http://www.fidelity.com/arizona,1-800-544-1262,Fidelity Arizona College Savings Plan C/O Fidelity Investments College Plan Service Center,P.O. Box 770001,"Cincinnati, OH 45277",1-800-544-1262,1-800-544-1262,,,www.fidelity.com/arizona,www.fidelity.com/arizona,www.fidelity.com/arizona,www.fidelity.com/arizona,,No,No state residency requirements.,Fidelity Investments,Fidelity Investments
1010,4,InvestEd,invested,ARIZONA - ARIZONA COMMISSION FOR POSTSECONDARY EDUCATION,529 Savings Plan,advisor_sold,Advisor Sold,AZ,Arizona,http://www.waddell.com,1-888-923-3355,6300 Lamar Avenue,,"Shawnee Mission, KS 66202",1-888-923-3355,1-888-923-3355,,,www.waddell.com/,,,,,Yes,Fee waivers may be available to state residents.,Waddell & Reed,Waddell & Reed
1011,6,ScholarShare College Savings Plan,scholarshare-college-savings-plan,CALIFORNIA - STATE TREASURER BILL LOCKYER,529 Savings Plan,direct_sold,Direct Sold,CA,California,http://www.scholarshare.com,1-800-544-5248,PO Box 55205,,"Boston, MA 02205",1-800-544-5248,1-800-544-5248,,info@scholarshare.com,www.scholarshare.com/,www.scholarshare.com/documents/ca_disclosure.pdf,www.scholarshare.com/open/index.shtml,www3.financialtrans.com/tf/FANWeb?tx=Disclaim&cz=6190800000200,www.scholarshare.com/performance/historical.shtml,No,No state residency requirements.,TIAA-CREF Tuition Financing Inc.,
1012,8,CollegeInvest Direct Portfolio College Savings Plan,collegeinvest-direct-portfolio-college-savings-plan,COLORADO - COLLEGEINVEST,529 Savings Plan,direct_sold,Direct Sold,CO,Colorado,http://www.collegeinvest.org/,800-997-4295,P.O. Box 219931,,"Kansas City, MO 64121-9931",800-997-4295,800-997-4295,,,www.collegeinvest.org/,www.collegeinvest.org/our-savings-plans/direct-portfolio/direct-portfolio-forms,www.collegeinvest.org/enroll/direct-portfolio-enrollment,www.collegeinvest529.com/cotpl/auth/loginFormAction.do?tplcb=%2Fcotpl%2Facctmaint%2FacctList.do,www.collegeinvest529.com/cotpl/fundperform/fundPricePerform.do,No,No state residency requirements.,,TIAA-CREF
1013,8,Scholars Choice College Savings Program,scholars-choice-college-savings-program,COLORADO - COLLEGEINVEST,529 Savings Plan,advisor_sold,Advisor Sold,CO,Colorado,http://www.scholars-choice.com,888-572-4652,P.O. Box 8566,,"Boston, MA 02266",888-572-4652,888-572-4652,816-218-0408,ScholarsChoice@leggmason.com,www.scholars-choice.com/,scholarschoice.myleggmason.com/portal/server.pt?open=512&objID=1324&parentname=CommunityPage&parentid=13&mode=2&in_hi_userid=383474&cached=true,www.scholars-choice.com/,www3.financialtrans.com/tf/FANWeb?tx=Disclaim&cz=d18020714110017020714080204&dealercode=40300-000,scholarschoice.myleggmason.com/portal/server.pt?open=512&objID=1325&parentname=CommunityPage&parentid=14&mode=2&in_hi_userid=383474&cached=true,No,No state residency requirements.,"Ascensus Broker Dealer Services Inc.,Ascensus Broker Dealer Services Inc.","Ascensus College Savings Recordkeeping Services, LLC.,The Vanguard Group®"
1014,8,CollegeInvest Smart Choice College Savings Plan,collegeinvest-smart-choice-college-savings-plan,COLORADO - COLLEGEINVEST,529 Savings Plan,direct_sold,Direct Sold,CO,Colorado,http://www.collegeinvest.org/,1-800-964-3444,12345 W. Colfax Avenue,,"Lakewood, CO 80215",1-800-964-3444,1-800-964-3444,,,www.collegeinvest.org/,www.collegeinvest.org/our-savings-plans/smart-choice/smart-choice-forms,www.collegeinvest.org/enroll/enrollment-smart-choice,www.efirstbank.com/home.htm,www.efirstbank.com/products/checking-savings/smart-choice-college-savings.htm,No,No state residency requirements.,Legg Mason,Legg Mason
1015,8,CollegeInvest Stable Value Plus College Savings Plan,collegeinvest-stable-value-plus-college-savings-plan,COLORADO - COLLEGEINVEST,529 Savings Plan,direct_sold,Direct Sold,CO,Colorado,http://www.collegeinvest.org,1-800-448-2424,1560 Broadway,Suite 1700,"Denver, CO 80202",1-800-448-2424,1-800-448-2424,303-296-4811,savings@collegeinvest.org,www.collegeinvest.org/,www.collegeinvest.org/our-savings-plans/stable-value-plus/stable-value-plus-investment-forms,www.collegeinvest.org/enroll/enrollment-stable-value-plus,myaccount.collegeinvest.org/pls/prod/twbkwbis.P_WWWLogin,www.collegeinvest.org/our-savings-plans/stable-value-plus/stable-value-plus-investment-options,No,No state residency requirements.,FirstBank,FirstBank
1016,9,Connecticut Higher Education Trust (CHET),connecticut-higher-education-trust-chet,"CONNECTICUT - OFFICE OF THE CONNECTICUT STATE TREASURER, DENISE L. NAPPIER",529 Savings Plan,direct_sold,Direct Sold,CT,Connecticut,http://www.aboutchet.com,1-888-799-2438,,P.O. Box 150499,"Hartford, CT 06115-0499",1-888-799-2438,1-888-799-2438,,,www.aboutchet.com/,www.aboutchet.com/documents/ct_disclosure.pdf,www.aboutchet.com/open/index.shtml,www3.financialtrans.com/tf/FANWeb?tx=Disclaim&cz=6190800000219,www.aboutchet.com/performance/fundperformance.shtml,Unknown,"At this time, residency information has not been added for this plan.",CollegeInvest,CollegeInvest
1017,9,CHET Advisor,chet-advisor,"CONNECTICUT - OFFICE OF THE CONNECTICUT STATE TREASURER, DENISE L. NAPPIER",529 Savings Plan,advisor_sold,Advisor Sold,CT,Connecticut,#,,,,,,,,,,,,,,Yes,Account owner must be state resident.,TIAA-CREF,TIAA-CREF
1018,11,DC College Savings Plan,dc-college-savings-plan,DISTRICT OF COLUMBIA - DISTRICT OF COLUMBIA OFFICE OF FINANCE AND TREASURY,529 Savings Plan,direct_sold_advisor_sold,Direct Sold and Advisor Sold,DC,District of Columbia,http://www.dccollegesavings.com,800-987-4859,,P.O. Box 11466,"Washington, DC 20008",800-987-4859,800-987-4859,,,www.dccollegesavings.com/,www.dccollegesavings.com/pdf/dc_disclosure.pdf,www.dccollegesavings.com/DCHowToEnroll.html,www3.financialtrans.com/tf/FANWeb?tx=Disclaim&cz=9020011210417190302,dc529.com/DCInvestmentPerformance.html,No,No state residency requirements.,"Hartford Life Insurance Company,Hartford Life Insurance Company,Hartford Life Insurance Company","Hartford Investment Financial Services, LLC,Hartford Investment Financial Services, LLC,Hartford Life Insurance Company"
1019,10,Delaware College Investment Plan,delaware-college-investment-plan,DELAWARE - DELAWARE COLLEGE INVESTMENT BOARD,529 Savings Plan,direct_sold,Direct Sold,DE,Delaware,http://www.fidelity.com/delaware,1-800-544-1655,Fidelity Investments,P.O. Box 770001,"Cincinnati, OH 45277-0036",1-800-544-1655,1-800-544-1655,,,www.fidelity.com/delaware,,personal.fidelity.com/planning/college/content/landing_de.shtml.cvsr,,,No,No state residency requirements.,"Calvert Investment Management, Inc.,Calvert Investment Management, Inc.,Calvert Investment Management, Inc.","Acacia Life Insurance Company,Calvert Investment Management, Inc.,State Street Global Advisors"
1020,12,Florida 529 Savings Plan,florida-529-savings-plan,FLORIDA - FLORIDA PREPAID COLLEGE BOARD,529 Savings Plan,direct_sold,Direct Sold,FL,Florida,http://www.florida529plans.com,1-800-552-4723,P.O. Box 6567,,"Tallahassee, FL 32314-6567",1-800-552-4723,1-800-552-4723,,,www.florida529plans.com/,,www.myfloridaprepaid.com/what-we-offer/529-savings-plan/,www.myfloridaprepaid.com/my-account/,www.myfloridaprepaid.com/what-we-offer/529-savings-plan/performance/,No,No state residency requirements.,Fidelity Investments,Fidelity Investments
1021,12,Florida Prepaid College Plans,florida-prepaid-college-plans,FLORIDA - FLORIDA PREPAID COLLEGE BOARD,529 Prepaid Plan,prepaid_plan,Prepaid Plan,FL,Florida,http://www.myfloridaprepaid.com,1-800-552-4723,P.O. Box 6567,,"Tallahassee, FL 32314-6567",1-800-552-4723,1-800-552-4723,,,www.myfloridaprepaid.com/,www.myfloridaprepaid.com/what-we-offer/,enroll.myfloridaprepaid.com/,www.myfloridaprepaid.com/my-account/,,Yes,Account owner or beneficiary must be state resident.,"Florida Prepaid College Board,Florida Prepaid College Board,Florida Prepaid College Board,Florida Prepaid College Board,Florida Prepaid College Board,Florida Prepaid College Board,Florida Prepaid College Board,Florida Prepaid College Board,Florida Prepaid College Board","AllianceBernstein Investments, Inc.,Columbia Management Investment Advisers, LLC and its affiliates,Federated Investment Management Company,Fiduciary Management, Inc.,Multiple Managers,PanAgora Asset Management, Inc.,Quantitative Management Associates LLC,Silvant Capital Management, LLC,The Boston Company Asset Management"
1022,13,Path2College 529 Plan,path2college-529-plan,GEORGIA - OFFICE OF THE STATE TREASURER,529 Savings Plan,direct_sold,Direct Sold,GA,Georgia,http://www.Path2College529.com,877-424-4377,P.O. Box 55924,,"Boston, MA 02205-5924",877-424-4377,877-424-4377,,Path2College@treasury.ga.gov,www.path2college529.com/,www.path2college529.com/pdf/ga_discl.pdf,www.path2college529.com/open/index.shtml,www3.financialtrans.com/tf/FANWeb?tx=Disclaim&cz=6190800000600,www.path2college529.com/performance/historic.shtml,No,No state residency requirements.,Florida Prepaid College Board,
1023,15,HI529-Hawaii's College Savings Program,hi529-hawaiis-college-savings-program,HAWAII - STATE DEPARTMENT OF BUDGET & FINANCE,529 Savings Plan,direct_sold,Direct Sold,HI,Hawaii,http://www.hi529.com,1-866-529-3343,Upromise Processing Center,P.O. Box 219779,"Kansas City, MO 64121-9779",1-866-529-3343,1-866-529-3343,,clientservice@hi529.com,www.hi529.com/,a248.e.akamai.net/f/248/21630/7d/uii.s.upromise.com/rc/hawaii/images/pdf/programDescription.pdf,hi529.s.upromise.com/hitpl/colongenroll/gettingStarted.do,hi529.s.upromise.com/hitpl/auth/loginFormAction.do?tplcb=%2Fhitpl%2Facctmaint%2FacctList.do,,No,No state residency requirements.,"TIAA-CREF,TIAA-CREF","TIAA-CREF,TIAA-CREF"
1024,19,College Savings Iowa,college-savings-iowa,IOWA - STATE TREASURER MICHAEL FITZGERALD,529 Savings Plan,direct_sold,Direct Sold,IA,Iowa,http://www.collegesavingsiowa.com,888-672-9116,Treasurer of the State of Iowa,P.O. Box 219219,"Kansas City, MO 64121-9219",888-672-9116,888-672-9116,,csi@iowa.gov,www.collegesavingsiowa.com/,collegesavingsiowa.s.upromise.com/content/forms.html,collegesavingsiowa.s.upromise.com/iatpl/uii529enroll/gettingStarted.do,collegesavingsiowa.s.upromise.com/,collegesavingsiowa.s.upromise.com/iatpl/fundperform/fundPricePerform.do,No,No state residency requirements.,"Upromise Investments, Inc.",The Vanguard Group®
1025,19,Iowa Advisor 529 Plan,iowa-advisor-529-plan,IOWA - STATE TREASURER MICHAEL FITZGERALD,529 Savings Plan,advisor_sold,Advisor Sold,IA,Iowa,http://www.iowaadvisor529.com,800-774-5127,C/O Voya Investment Management,PO Box 9659,"Providence, RI 02940-9659",800-774-5127,800-774-5127,,,www.iowaadvisor529.com/,529plans.investments.voya.com/Iowa/Lit/index.htm,529plans.investments.voya.com/Iowa/Enroll/index.htm,529plans.investments.voya.com/Iowa/Account/My-Account/index.htm,529plans.investments.voya.com/Iowa/Investments/Prices-Performance/index.htm,No,No state residency requirements.,"State Treasurer of Iowa, The Vanguard Group and Upromise Investments Inc.",The Vanguard Group®
1026,16,IDeal - Idaho College Savings Program,ideal-idaho-college-savings-program,IDAHO - STATE TREASURER RON CRANE,529 Savings Plan,direct_sold,Direct Sold,ID,Idaho,http://www.idsaves.org,866-433-2533,P.O. Box 219944,,"Kansas City, MO 64121",866-433-2533,866-433-2533,,clientservice@idsaves.org,www.idsaves.org/,idsaves.s.upromise.com/content/resources_formsandlit.html,idsaves.s.upromise.com/idtpl/colongenroll/gettingStarted.do,idsaves.s.upromise.com/idtpl/auth/loginFormAction.do?tplcb=%2Fidtpl%2Facctmaint%2FacctList.do,idsaves.s.upromise.com/idtpl/fundperform/fundPricePerform.do,No,No state residency requirements.,"Upromise Investments, Inc.,Upromise Investments, Inc.","Sallie Mae Bank,The Vanguard Group®"
1027,17,College Illinois!® Prepaid Tuition Program,college-illinois-prepaid-tuition-program,ILLINOIS - ILLINOIS STUDENT ASSISTANCE COMMISSION,529 Prepaid Plan,prepaid_plan,Prepaid Plan,IL,Illinois,http://www.collegeillinois.org,877-877-3724,PO Box 19291,,"Springfield, IL 62794-9291",877-877-3724,877-877-3724,217-785-6242,isac.529info@isac.illinois.gov,www.collegeillinois.org/,collegeillinois.org/MyAccount,,,,Yes,Account owner or beneficiary must be state resident.,Illinois Student Assistance Commission,Selected by ISAC (Board)
1028,17,Bright Directions College Savings Program,bright-directions-college-savings-program,ILLINOIS - STATE TREASURER DAN RUTHERFORD,529 Savings Plan,advisor_sold,Advisor Sold,IL,Illinois,http://www.brightdirections.com,866-722-7283,PO Box 82623,,"Lincoln, NE 68501-9823",866-722-7283,866-722-7283,402-323-1797,,www.brightdirections.com/,www.brightdirections.com/,,www.brightdirections.com/,www.brightdirections.com/About/investments/port_perf.asp?FeeStruct=A,No,No state residency requirements.,"Union Bank & Trust Company,Union Bank & Trust Company,Union Bank & Trust Company,Union Bank & Trust Company,Union Bank & Trust Company,Union Bank & Trust Company,Union Bank & Trust Company,Union Bank & Trust Company,Union Bank & Trust Company,Union Bank & Trust Company,Union Bank & Trust Company,Union Bank & Trust Company,Union Bank & Trust Company,Union Bank & Trust Company,Union Bank & Trust Company,Union Bank & Trust Company","American Century Investment Services, Inc.,Ariel Capital,Barclays Global Investors,BlackRock,Calvert Group, Ltd.,,Delaware Investments,Dimensional Fund Advisors,Multiple Investment Managers,Multiple Investment Managers,NCM Capital Management Group, Inc,Northern Funds,Northern Trust Investments, N.A.,OppenheimerFunds Inc.,PIMCO,T. Rowe Price,William Blair"
1029,17,Bright Start College Savings Program - Direct,bright-start-college-savings-program-direct,ILLINOIS - STATE TREASURER DAN RUTHERFORD,529 Savings Plan,direct_sold,Direct Sold,IL,Illinois,http://www.brightstartsavings.com,877-432-7444,Bright Start,P.O. Box 5288,"Denver, CO 80217",877-432-7444,877-432-7444,,,www.brightstartsavings.com/,"www.brightstartsavings.com/www/litcenter/litCategory.do?path=1,0,0",www.brightstartsavings.com/shWebApp/pages/EnrollNow.jsf,www.brightstartsavings.com/shWebApp/pages/Login.jsf,www.brightstartsavings.com/OFI529/AP/PerformanceInfo.do?term=ytd,No,No state residency requirements.,"OFI Private Investments, Inc., a subsidiary of OppenheimerFunds Inc.,OFI Private Investments, Inc., a subsidiary of OppenheimerFunds Inc.,OFI Private Investments, Inc., a subsidiary of OppenheimerFunds Inc.,OFI Private Investments, Inc., a subsidiary of OppenheimerFunds Inc.","American Century Investment Services, Inc.,Multiple Investment Managers,OFI Private Investments, Inc.,The Vanguard Group®"
1030,17,Bright Start College Savings Program - Advisor,bright-start-college-savings-program-advisor,ILLINOIS - STATE TREASURER DAN RUTHERFORD,529 Savings Plan,advisor_sold,Advisor Sold,IL,Illinois,http://www.brightstartadvisor.com,877-432-7444,Bright Start,P.O. Box 5288,"Denver, CO 80217",877-432-7444,877-432-7444,,,www.brightstartadvisor.com/,"www.brightstartadvisor.com/j2ee/www/litcenter/litCategory.do?path=1,0,0&plan=ILAdvisorSold&site=den-prod-ofi529-1",www.brightstartadvisor.com/OFI529/PN/generated/en_us/PrimaryNavigation_06-02-09-210215.xml,www.brightstartadvisor.com/shWebApp/pages/Login.jsf,www.brightstartadvisor.com/OFI529/AP/PerformanceInfo.do?term=ytd,No,No state residency requirements.,"OFI Private Investments, Inc., a subsidiary of OppenheimerFunds Inc.,OFI Private Investments, Inc., a subsidiary of OppenheimerFunds Inc.,OFI Private Investments, Inc., a subsidiary of OppenheimerFunds Inc.","American Century Investment Services, Inc.,Multiple Investment Managers,OFI Private Investments, Inc."
1031,18,CollegeChoice 529 Direct Savings Plan,collegechoice-529-direct-savings-plan,INDIANA - INDIANA EDUCATION SAVINGS AUTHORITY,529 Savings Plan,direct_sold,Direct Sold,IN,Indiana,http://www.collegechoicedirect.com,866-485-9415,P.O. Box 55767,,"Boston, MA 02205",866-485-9415,866-485-9415,,clientservice@collegechoicedirect.com,www.collegechoicedirect.com/,a248.e.akamai.net/f/248/21630/7d/529.com/rc/sr2/indiana/programdescription.pdf,collegechoicedirect.s.upromise.com/indtpl/colongenroll/gettingStarted.do,collegechoicedirect.s.upromise.com/indtpl/auth/loginFormAction.do?tplcb=%2Findtpl%2Facctmaint%2FacctList.do,collegechoicedirect.s.upromise.com/indtpl/fundperform/fundPricePerform.do,Yes,Fee waivers may be available to state residents.,"Upromise Investments, Inc.","Upromise Investments, Inc."
1032,18,CollegeChoice Advisor 529 Savings Plan,collegechoice-advisor-529-savings-plan,INDIANA - INDIANA EDUCATION SAVINGS AUTHORITY,529 Savings Plan,advisor_sold,Advisor Sold,IN,Indiana,http://www.collegechoiceadvisor529.com,866-485-9413,P.O. Box 55768,,"Boston, MA 02205",866-485-9413,866-485-9413,,clientservice@collegechoiceadvisor529.com,www.collegechoiceadvisor529.com/,a248.e.akamai.net/f/248/21630/7d/529.com/rc/sr2/indianaadv/programdescription.pdf,,collegechoiceadvisor529.s.upromise.com/inatpl/auth/loginFormAction.do?tplcb=%2Finatpl%2Facctmaint%2FacctList.do,collegechoiceadvisor529.s.upromise.com/inatpl/fundperform/fundPricePerform.do,Yes,Fee waivers may be available to state residents.,"Upromise Investments, Inc.,Upromise Investments, Inc.","Upromise Investments, Inc.,Upromise Investments, Inc."
1033,18,CollegeChoice CD 529 Savings Plan,collegechoice-cd-529-savings-plan,INDIANA - INDIANA EDUCATION SAVINGS AUTHORITY,529 Savings Plan,direct_sold_advisor_sold,Direct Sold and Advisor Sold,IN,Indiana,http://www.collegechoicecd.com,1-888-913-2885,5 Vaughn Drive,,"Princeton, NJ 08540",1-888-913-2885,1-888-913-2885,,questions@collegechoicecd.com,www.collegechoicecd.com/,,www.collegechoicecd.com/enroll.csb,,,No,No state residency requirements.,College Savings Bank,College Savings Bank
1034,20,Learning Quest,learning-quest,KANSAS - STATE TREASURER RON ESTES,529 Savings Plan,direct_sold,Direct Sold,KS,Kansas,http://www.learningquest.com,800-579-2203,P.O. Box 29202,,"Shawnee Mission, ks 66201-9202",800-579-2203,800-579-2203,,,www.learningquest.com/,www.learningquest.com/content/by_mail.html,lqd.529.com/lqdtpl/dstcolongenroll/gettingStarted.do,www.learningquest.com/content/login.html,lqd.529.com/lqdtpl/fundperform/fundPerformanceQuaterEnd.do,No,No state residency requirements.,"American Century Investment Services, Inc.,American Century Investment Services, Inc.","American Century Investment Services, Inc.,The Vanguard Group®"
1035,20,Learning Quest Advisor,learning-quest-advisor,KANSAS - STATE TREASURER RON ESTES,529 Savings Plan,advisor_sold,Advisor Sold,KS,Kansas,http://www.learningquest.com,877-882-6236,P.O. Box 2947,,"Shawnee Mission, ks 66201-1347",877-882-6236,877-882-6236,,,www.learningquest.com/,www.learningquest.com/content/forms_adv.html,,www.learningquest.com/content/login.html,lqa.529.com/lqatpl/fundperform/fundPerformanceQuaterEnd.do,No,No state residency requirements.,"American Century Investment Services, Inc.,American Century Investment Services, Inc.,American Century Investment Services, Inc.,American Century Investment Services, Inc.,American Century Investment Services, Inc.","American Beacon Advisors,American Century Investment Services, Inc.,Multiple Investment Managers,T. Rowe Price,The Principal Financial Group"
1036,20,Schwab 529 College Savings Plan,schwab-529-college-savings-plan,KANSAS - STATE TREASURER RON ESTES,529 Savings Plan,direct_sold,Direct Sold,KS,Kansas,http://www.schwab.com/529,888-903-3863,P.O. Box 2906,,"Shawnee Mission, KS 66201-2906",888-903-3863,888-903-3863,,,www.schwab.com/529,www.schwab.com/public/schwab/investing/accounts_products/accounts/college_savings/529_plan,schwab529.529.com/swatpl/dstcolongenroll/gettingStarted.do,www.schwab.com/public/schwab/investing,www.schwab.com/public/schwab/investing/accounts_products/accounts/college_savings/529_plan,No,No state residency requirements.,"American Century Investment Services, Inc.,American Century Investment Services, Inc.,American Century Investment Services, Inc.,American Century Investment Services, Inc.,American Century Investment Services, Inc.,American Century Investment Services, Inc.,American Century Investment Services, Inc.,American Century Investment Services, Inc.,American Century Investment Services, Inc.,American Century Investment Services, Inc.","American Beacon Advisors,American Century Investment Services, Inc.,Baron Funds,Charles Schwab & Co. Inc.,JP Morgan,Laudus Funds,Metropolitan West,Multiple Investment Managers,PIMCO Advisors Distributors,The Vanguard Group®"
1037,21,Kentucky Education Savings Plan Trust (KESPT),kentucky-education-savings-plan-trust-kespt,KENTUCKY - KENTUCKY HIGHER EDUCATION ASSISTANCE AUTHORITY,529 Savings Plan,direct_sold,Direct Sold,KY,Kentucky,http://www.kysaves.com,1-877-598-7878,P. O. Box 8100,,"Boston, MA 02266-8100",1-877-598-7878,1-877-598-7878,,,www.kysaves.com/,www.kysaves.com/documents/ky_disclosure.pdf,www.kysaves.com/open/index.shtml,www3.financialtrans.com/tf/FANWeb?tx=Disclaim&cz=6190800001024,www.kysaves.com/performance/historic.shtml,No,No state residency requirements.,"TIAA-CREF,TIAA-CREF","TIAA-CREF,TIAA-CREF"
1038,21,Kentucky's Affordable Prepaid Tuition,kentuckys-affordable-prepaid-tuition,KENTUCKY - KENTUCKY HIGHER EDUCATION ASSISTANCE AUTHORITY,529 Prepaid Plan,prepaid_plan,Prepaid Plan,KY,Kentucky,http://www.getkapt.com/,1-888-919-5278,c/o KHEAA,PO Box 798,"Frankfort, KY 40602-0798",1-888-919-5278,1-888-919-5278,1-502-696-7496,,www.getkapt.com/,www.getkapt.com/enrollment.html,www.getkapt.com/enrollment.html,www.prima-wave.com/pages/login.asp?var=16,,No,No state residency requirements.,InTuition Solutions,State Street Global Advisors
1039,22,Student Tuition Assistance and Revenue Trust (START) Saving Program,student-tuition-assistance-and-revenue-trust-start-saving-program,LOUISIANA - LOUISIANA OFFICE OF STUDENT FINANCIAL ASSISTANCE,529 Savings Plan,direct_sold,Direct Sold,LA,Louisiana,http://www.startsaving.la.gov,1-800-259-5626,Post Office Box 91271,,"Baton Rouge, LA 70821-9271",1-800-259-5626,1-800-259-5626,225-612-6497,START@osfa.la.gov,www.startsaving.la.gov/,www.startsaving.la.gov/savings/forms.jsp,www.startsaving.la.gov/savings/enroll/interview.jsp,www.startsaving.la.gov/savings/logon/logon.jsp,,Yes,Account owner or beneficiary must be state resident.,"State Treasury,State Treasury","State Treasury,The Vanguard Group®"
1040,25,The U.Plan Prepaid Tuition Program,the-uplan-prepaid-tuition-program,MASSACHUSETTS - MASSACHUSETTS EDUCATIONAL FINANCING AUTHORITY,529 Prepaid Plan,prepaid_plan,Prepaid Plan,MA,Massachusetts,http://www.mefa.org/uplan,1-800-449-6332,"MEFA 160 Federal Street, 4th floor",,"Boston, MA 02110",1-800-449-6332,1-800-449-6332,617-261-9765,info@mefa.org,www.mefa.org/uplan,www.mefa.org/uplan,www.mefa.org/uplan,,,No,No state residency requirements.,Massachusetts Educational Financing Authority,MEFA
1041,25,The U.Fund College Investing Plan,the-ufund-college-investing-plan,MASSACHUSETTS - MASSACHUSETTS EDUCATIONAL FINANCING AUTHORITY,529 Savings Plan,direct_sold,Direct Sold,MA,Massachusetts,http://www.fidelity.com/ufund,1-800-544-2776,U.Fund College Investing Plan C/O Fidelity Investments College Plan Service Center,P.O.Box 770001,"Cincinnati, OH 45277-0015",1-800-544-2776,1-800-544-2776,,,www.fidelity.com/ufund,www.fidelity.com/ufund,www.fidelity.com/ufund,www.fidelity.com/ufund,,No,No state residency requirements.,Fidelity Investments,Fidelity Investments
1042,24,Maryland Prepaid College Trust,maryland-prepaid-college-trust,MARYLAND - COLLEGE SAVINGS PLANS OF MARYLAND,529 Prepaid Plan,prepaid_plan,Prepaid Plan,MD,Maryland,http://www.collegesavingsmd.org/bt1mpct.cfm,1-888-463-4723,217 E. Redwood Street,Suite 1350,"Baltimore, MD 21202",1-888-463-4723,1-888-463-4723,410-333-2295,mpct@collegesavingsmd.org,www.collegesavingsmd.org/bt1mpct.cfm,files.collegesavingsmd.org/cspm_enrollment_kit.pdf,www.collegesavingsmd.org/bt2enroll.cfm,www.collegesavingsmd.org/account_access/account_access.cfm,,Yes,Account owner or beneficiary must be state resident.,College Savings Plans of Maryland Board,College Savings Plans of Maryland Board
1043,24,Maryland College Investment Plan,maryland-college-investment-plan,MARYLAND - COLLEGE SAVINGS PLANS OF MARYLAND,529 Savings Plan,direct_sold,Direct Sold,MD,Maryland,http://www.collegesavingsmd.org,1-888-463-4723,P.O. Box 17479,,"Baltimore, MD 21297-1479",1-888-463-4723,1-888-463-4723,410-581-5184,info@marylandcollegeinvestmentplan.org,www.collegesavingsmd.org/,files.collegesavingsmd.org/cspm_enrollment_kit.pdf,www.collegesavingsmd.org/college-investment-plan-enroll.aspx,secure.collegesavingsmd.org/pls/prod/twbkwbis.P_WWWLogin?,www.collegesavingsmd.org/college-investment-plan-investment-performance.aspx,No,No state residency requirements.,T. Rowe Price,T. Rowe Price
1044,23,NextGen College Investing Plan - Direct Series,nextgen-college-investing-plan-direct-series,MAINE - FINANCE AUTHORITY OF MAINE,529 Savings Plan,direct_sold,Direct Sold,ME,Maine,http://www.nextgenplan.com,877-463-9843,PO Box 1518,,"Pennington, NJ 08534-9987",877-463-9843,877-463-9843,609-274-0711,NextGen@famemaine.com,www.nextgenplan.com/,www.nextgenplan.com/,www.nextgenplan.com/,www.nextgenplan.com/,www.nextgenplan.com/,No,No state residency requirements.,"Merrill Lynch,Merrill Lynch,Merrill Lynch,Merrill Lynch,Merrill Lynch,Merrill Lynch","Bank of America,BlackRock,BlackRock iShares,Franklin Templeton Advisers, Inc.,GIC and FDIC Insured Bank Deposit Account,MFS Investment Management"
1045,23,NextGen College Investing Plan - Select Series,nextgen-college-investing-plan-select-series,MAINE - FINANCE AUTHORITY OF MAINE,529 Savings Plan,advisor_sold,Advisor Sold,ME,Maine,http://www.nextgenplan.com,877-463-9843,PO Box 1518,,"Pennington, NJ 08534-9987",877-463-9843,877-463-9843,609-274-0711,NextGen@FAMEmaine.com,www.nextgenplan.com/,www.nextgenplan.com/,www.nextgenplan.com/,www.nextgenplan.com/,www.nextgenplan.com/,No,No state residency requirements.,"Merrill Lynch,Merrill Lynch,Merrill Lynch,Merrill Lynch,Merrill Lynch,Merrill Lynch,Merrill Lynch,Merrill Lynch,Merrill Lynch,Merrill Lynch,Merrill Lynch","Allianz Global Investors Distributors LLC,Bank of America-FDIC Insured Bank Deposit Account,BlackRock,BlackRock iShares,Eaton Vance,Franklin Templeton Investments,GIC and FDIC Insured Bank Deposit Account,MainStay Investments,MFS Investment Management,OppenheimerFunds Inc.,Thornburg Investment Management, Inc."
1046,26,Michigan Education Trust,michigan-education-trust,MICHIGAN - STATE TREASURER KEVIN CLINTON,529 Prepaid Plan,prepaid_plan,Prepaid Plan,MI,Michigan,http://www.setwithmet.com,800-638-4543,P.O. Box 30198,,"Lansing, MI 48909",800-638-4543,800-638-4543,517-373-6967,treasmet@michigan.gov,www.setwithmet.com/,www.michigan.gov/documents/setwithmet/4326for2014_441085_7.pdf,"www.michigan.gov/setwithmet/0,1607,7-237-43441---,00.html",metonline.myprepaidtuition.com/login.aspx,,Yes,Account owner or beneficiary must be state resident.,Michigan Education Trust,State Treasury
1047,26,Michigan Education Savings Program,michigan-education-savings-program,MICHIGAN - STATE TREASURER KEVIN CLINTON,529 Savings Plan,direct_sold,Direct Sold,MI,Michigan,http://www.misaves.com,877-861-6377,P.O. Box 55925,,"Boston, MA 02205-5925",877-861-6377,877-861-6377,,,www.misaves.com/,www.misaves.com/pdf/mi_discl.pdf,www.misaves.com/account/open.html,www3.financialtrans.com/tf/FANWeb?tx=Disclaim&cz=6190800001208,www.misaves.com/pdf/performance.pdf,No,No state residency requirements.,TIAA-CREF Tuition Financing Inc.,TIAA-CREF
1048,26,MI 529 Advisor Plan,mi-529-advisor-plan,MICHIGAN - STATE TREASURER KEVIN CLINTON,529 Savings Plan,advisor_sold,Advisor Sold,MI,Michigan,http://www.mi529advisor.com,866-529-8818,P.O. Box 55070,,"Boston, MA 02205-5070",866-529-8818,866-529-8818,,,www.mi529advisor.com/,www.mi529advisor.com/MI529Advisor/Pages/Forms.aspx,,www3.financialtrans.com/tf/FANWeb?tx=Disclaim&cz=715081202141208,www.mi529advisor.com/MI529Advisor/Pages/Performance.aspx,No,No state residency requirements.,TIAA-CREF,TIAA-CREF
1049,27,Minnesota College Savings Plan,minnesota-college-savings-plan,MINNESOTA - MINNESOTA OFFICE OF HIGHER EDUCATION,529 Savings Plan,direct_sold,Direct Sold,MN,Minnesota,http://www.mnsaves.org/,1-877-338-4646,PO Box 55134,,"Boston, MA 02205-5134",1-877-338-4646,1-877-338-4646,,,www.mnsaves.org/,www.mnsaves.org/documents/mn_disclosure.pdf,www.mnsaves.org/account/open.html,www3.financialtrans.com/tf/FANWeb?tx=Disclaim&cz=6190800001213,www.mnsaves.org/performance/historic.shtml,No,No state residency requirements.,TIAA-CREF Tuition Financing Inc.,TIAA-CREF
1050,29,MOST - Missouri's 529 College Savings Plan - Direct Sold,most-missouris-529-college-savings-plan-direct-sold,MISSOURI - STATE TREASURER CLINT ZWEIFEL,529 Savings Plan,direct_sold,Direct Sold,MO,Missouri,http://www.missourimost.com,888-414-6678,PO Box 219212,,"Kansas City, MO 64121-9212",888-414-6678,888-414-6678,,most529@missourimost.org,www.missourimost.com/,missourimost.s.upromise.com/motpl/literatureforms/LiteratureForms.do,missourimost.s.upromise.com/motpl/colongenroll/gettingStarted.do,missourimost.s.upromise.com/motpl/colongenroll/gettingStarted.do,,Yes,Fee waivers may be available to state residents.,"Upromise Investments, Inc.",The Vanguard Group®
1051,29,MOST - Missouri's 529 College Savings Plan - Advisor Sold,most-missouris-529-college-savings-plan-advisor-sold,MISSOURI - STATE TREASURER CLINT ZWEIFEL,529 Savings Plan,advisor_sold,Advisor Sold,MO,Missouri,http://www.most529advisor.com,1-800-617-5097,P.O. Box 219343,,"Kansas City, MO 64121",1-800-617-5097,1-800-617-5097,,,www.most529advisor.com/,most529advisor.s.upromise.com/content/toolsandlit.html,,most529advisor.s.upromise.com/content/overview.html,most529advisor.s.upromise.com/moatpl/fundperform/fundPricePerformAlt.do,Unknown,"At this time, residency information has not been added for this plan.","Upromise Investments, Inc.,Upromise Investments, Inc.,Upromise Investments, Inc.,Upromise Investments, Inc.,Upromise Investments, Inc.,Upromise Investments, Inc.,Upromise Investments, Inc.,Upromise Investments, Inc.,Upromise Investments, Inc.,Upromise Investments, Inc.","American Century Investment Management, Inc.,BlackRock Institutional Trust Company, N.A. and BlackRock Fund Advisors,Capital Research and Management Company,Columbia Management Investment Advisers, LLC and its affiliates,Deutsche Investment Management Americas Inc.,Invesco Advisers, Inc.,Pacific Investment Management Company, LLC,Scout Investments, Inc.,T. Rowe Price Associates, Inc.,Templeton Global Advisors Limited"
1052,28,Mississippi Affordable College Savings (MACS) Direct-Sold,mississippi-affordable-college-savings-macs-direct-sold,MISSISSIPPI - OFFICE OF STATE TREASURER LYNN FITCH,529 Savings Plan,direct_sold,Direct Sold,MS,Mississippi,http://www.ms529.com/home.shtml,1-800-486-3670,P.O. Box 55037,,"Boston, MA 02205-8683",1-800-486-3670,1-800-486-3670,,,www.ms529.com/home.shtml,www.collegesavingsms.com/faq_gen.html,www3.financialtrans.com/tf/FANWeb?tx=Disclaim&cz=6190800001218,www3.financialtrans.com/tf/FANWeb?tx=Disclaim&cz=6190800001218,,No,No state residency requirements.,TIAA-CREF,TIAA-CREF
1053,28,Mississippi Prepaid Affordable College Tuition Program (MPACT),mississippi-prepaid-affordable-college-tuition-program-mpact,MISSISSIPPI - OFFICE OF STATE TREASURER LYNN FITCH,529 Prepaid Plan,prepaid_plan,Prepaid Plan,MS,Mississippi,http://www.collegesavingsmississippi.com/,1-800-987-4450,Post Office Box 120,,"Jackson, MS 39205",1-800-987-4450,1-800-987-4450,601-359-5234,collegesavings@treaury.ms.gov,www.collegesavingsmississippi.com/,www.collegesavingsmississippi.com/resources/,,www.prima-wave.com/pages/login.asp?var=05,,Yes,Account owner or beneficiary must be state resident.,Mississippi Treasury Department,State Treasury
1054,30,Montana Family Education Savings Program - Bank Plan,montana-family-education-savings-program-bank-plan,MONTANA - BOARD OF REGENTS,529 Savings Plan,direct_sold_advisor_sold,Direct Sold and Advisor Sold,MT,Montana,http://www.mfesp.com/,1-800-888-2723,PO Box 203101,,"Helena, MT 59620-3101",1-800-888-2723,1-800-888-2723,,montana@collegesavings.com,www.mfesp.com/,,,,,No,No state residency requirements.,College Savings Bank,College Savings Bank
1055,30,Montana Family Education Savings Program - Investment Plan,montana-family-education-savings-program-investment-plan,MONTANA - BOARD OF REGENTS,529 Savings Plan,direct_sold,Direct Sold,MT,Montana,http://www.mfesp.com/,1-800-888-2723,PO Box 203101,,"Helena, MT 59620-3101",1-800-888-2723,1-800-888-2723,,montana@collegesavings.com,www.mfesp.com/,,,,,No,No state residency requirements.,College Savings Bank,The Vanguard Group®
1056,37,North Carolina's National College Savings Program,north-carolinas-national-college-savings-program,NORTH CAROLINA - NORTH CAROLINA STATE EDUCATION ASSISTANCE AUTHORITY,529 Savings Plan,direct_sold,Direct Sold,NC,North Carolina,http://CFNC.org/NC529,800-600-3453,P.O. Box 40877,,"Raleigh, NC 27629-0877",800-600-3453,800-600-3453,919-835-2304,savings@CFNC.org,cfnc.org/NC529,cfnc.org/NC529,cfnc.org/NC529,cfnc.org/NC529,cfnc.org/NC529,No,No state residency requirements.,"College Foundation, Inc.,College Foundation, Inc.,College Foundation, Inc.","North Carolina State Treasurer,State Employees' Credit Union,The Vanguard Group®"
1057,38,College SAVE,college-save,NORTH DAKOTA - BANK OF NORTH DAKOTA,529 Savings Plan,direct_sold_advisor_sold,Direct Sold and Advisor Sold,ND,North Dakota,http://www.collegesave4u.com,866-728-3529,Upromise Investments Service Center,P.O. Box 219781,"Kansas City, MO 64121-7179",866-728-3529,866-728-3529,,,www.collegesave4u.com/,collegesave4u.s.upromise.com/misc/requestKit.html,collegesave4u.s.upromise.com/ndtpl/colongenroll/gettingStarted.do,collegesave4u.s.upromise.com/,,No,No state residency requirements.,"Upromise Investments, Inc. and The Vanguard Group®",The Vanguard Group®
1058,31,"Nebraska Educational Savings Trust ""NEST"" Direct College Savings Plan",nebraska-educational-savings-trust-nest-direct-college-savings-plan,NEBRASKA - NEBRASKA STATE TREASURER,529 Savings Plan,direct_sold,Direct Sold,NE,Nebraska,http://www.nest529direct.com,888-993-3746,PO Box 30276,,"Omaha, NE 68103-1376",888-993-3746,888-993-3746,617-559-8906,clientservice@NEST529Direct.com,www.nest529direct.com/,www.nest529direct.com/nedtpl/literatureforms/getPDFForm.do?cmsPDF=programdescription.pdf,www.nest529direct.com/content/enrollnow.html,www.nest529direct.com/nedtpl/auth/loginFormAction.do,www.nest529direct.com/nedtpl/fundperform/fundPricePerform.do,No,No state residency requirements.,"First National Bank of Omaha,First National Bank of Omaha,First National Bank of Omaha,First National Bank of Omaha","First National Bank of Omaha,First National Bank of Omaha,First National Bank of Omaha,First National Bank of Omaha"
1059,31,"Nebraska Educational Savings Trust ""NEST"" Advisor College Savings Plan",nebraska-educational-savings-trust-nest-advisor-college-savings-plan,NEBRASKA - NEBRASKA STATE TREASURER,529 Savings Plan,advisor_sold,Advisor Sold,NE,Nebraska,http://www.nest529advisor.com/,888-659-6378,PO Box 30277,,"Omaha, NE 68103-1377",888-659-6378,888-659-6378,617-559-8908,clientservice@NEST529Advisor.com,www.nest529advisor.com/,a248.e.akamai.net/f/248/21630/7d/im.uprinv.com/rc/sr2/nea/programdescription.pdf,,www.nest529advisor.com/neatpl/auth/loginFormAction.do?tplcb=%2Fneatpl%2Facctmaint%2FacctList.do,www.nest529advisor.com/neatpl/fundperform/fundPricePerform.do,No,No state residency requirements.,First National Bank of Omaha,First National Bank of Omaha
1060,31,TD Ameritrade 529 College Savings Plan,td-ameritrade-529-college-savings-plan,NEBRASKA - NEBRASKA STATE TREASURER,529 Savings Plan,direct_sold,Direct Sold,NE,Nebraska,http://collegesavings.tdameritrade.com/index.asp,877-408-4644,PO Box 30278,,"Omaha, NE 68103-1378",877-408-4644,877-408-4644,617-559-8907,TDAmeritrade@NEST529.com,collegesavings.tdameritrade.com/index.asp,collegesavings.tdameritrade.com/pdfs/TDA_PDS.pdf,collegesavings.tdameritrade.com/index.asp,collegesavings.tdameritrade.com/index.asp,collegesavings.tdameritrade.com/investments/index.asp,No,No state residency requirements.,First National Bank of Omaha,First National Bank of Omaha
1061,31,The State Farm College Savings Plan,the-state-farm-college-savings-plan,NEBRASKA - STATE TREASURER DON STENBERG,529 Savings Plan,advisor_sold,Advisor Sold,NE,Nebraska,http://www.statefarm.com/mutual/acct_types/529.asp,1-800-321-7520,PO Box 173865,,"Denver, CO 80217-3865",1-800-321-7520,1-800-321-7520,,,www.statefarm.com/mutual/acct_types/529.asp,www.statefarm.com/mutual/sc/forms.asp,www.statefarm.com/mutual/open.asp,,www.statefarm.com/mutual/investors/pricing_perf/perform529.asp,No,No state residency requirements.,"First National Bank of Omaha,First National Bank of Omaha,First National Bank of Omaha,First National Bank of Omaha","Federated Investors, Inc.,Multiple Investment Managers,OFI Private Investments, Inc.,State Farm"
1062,33,UNIQUE College Investing Plan,unique-college-investing-plan,NEW HAMPSHIRE - STATE TREASURER CATHERINE PROVENCHER,529 Savings Plan,direct_sold,Direct Sold,NH,New Hampshire,http://www.fidelity.com/unique,1-800-544-1914,Fidelity Investments,P.O. Box 770001,"Cincinnati, OH 45277-0036",1-800-544-1914,1-800-544-1914,,,www.fidelity.com/unique,personal.fidelity.com/planning/pdf/6167aagt.pdf,personal.fidelity.com/planning/college/content/landing_NH.shtml.cvsr,personal.fidelity.com/planning/college/content/open_a_529_account_download.shtml?state=NH,,No,No state residency requirements.,Fidelity Investments,Fidelity Investments
1063,33,Fidelity Advisor 529 Plan,fidelity-advisor-529-plan,NEW HAMPSHIRE - STATE TREASURER CATHERINE PROVENCHER,529 Savings Plan,advisor_sold,Advisor Sold,NH,New Hampshire,http://advisor.fidelity.com,1-800-544-9999,Fidelity Investments,P.O. Box 770002,"Cincinnati, OH 45277-0036",1-800-544-9999,1-800-544-9999,,,advisor.fidelity.com/,,,www.advisor.fidelity.com/,,No,No state residency requirements.,Fidelity Investments,Fidelity Investments
1064,34,Franklin Templeton 529 College Savings Plan,franklin-templeton-529-college-savings-plan,NEW JERSEY - HIGHER EDUCATION STUDENT ASSISTANCE AUTHORITY,529 Savings Plan,advisor_sold,Advisor Sold,NJ,New Jersey,http://www.franklintempleton.com/retail/app/navigation/views/sec_landingPage.jsf,866-362-1597,P.O. Box 33090,,"St. Petersburg, FL 33733-8090",866-362-1597,866-362-1597,,,www.franklintempleton.com/retail/app/navigation/views/sec_landingPage.jsf?title=sel529Plan,www.franklintempleton.com/retail/jsp_app/lit/orderlit_order.jsp?CategoryId=COLLEGEPLANNING&SubCategoryId=COL02&SearchType=CATEGORY,www.franklintempleton.com/retail/pages/generic_content/prog_serv/529/pub/open_529_acct.jsf,www.franklintempleton.com/retail/app/navigation/views/sec_landingPage.jsf?title=sel529Plan,www.franklintempleton.com/retail/pages/generic_content/prog_serv/529/pub/performance.jsf#c1-1,No,No state residency requirements.,"Franklin Templeton Advisers, Inc.","Franklin Templeton Advisers, Inc."
1065,34,NJBEST 529 College Savings Plan,njbest-529-college-savings-plan,NEW JERSEY - HIGHER EDUCATION STUDENT ASSISTANCE AUTHORITY,529 Savings Plan,direct_sold,Direct Sold,NJ,New Jersey,http://www.njbest.com/,877-465-2378,P.O. Box 33090,,"St. Petersburg, FL 33733-8090",877-465-2378,877-465-2378,,NJBEST@HESAA.org,www.njbest.com/,www.njbest.com/saving-for-college/,www.njbest.com/njbest/enroll,www.njbest.com/,www.njbest.com/about-njbest/performance-and-pricing.html,Yes,Account owner or beneficiary must be state resident.,"Franklin Templeton Advisers, Inc.","Franklin Templeton Advisers, Inc."
1066,35,The Education Plan,the-education-plan,NEW MEXICO - THE EDUCATION TRUST BOARD OF NEW MEXICO,529 Savings Plan,direct_sold,Direct Sold,NM,New Mexico,http://www.theeducationplan.com,1-877-337-5268,PO Box 173691,,"Denver, CO 80217",1-877-337-5268,1-877-337-5268,1-303-768-6529,,www.theeducationplan.com/,"www.theeducationplan.com/j2ee/www/litcenter/litCategory.do?path=0,0,0&plan=NMDirectSold&site=den-prod-ofi529-1",www.theeducationplan.com/OFI529/PN/generated/en_us/PrimaryNavigation_11-20-08-081833.xml,www.theeducationplan.com/shWebApp/pages/Login.jsf,www.theeducationplan.com/OFI529/AP/PerformanceInfo.do?term=ytd,No,No state residency requirements.,"OFI Private Investments, Inc., a subsidiary of OppenheimerFunds Inc.,OFI Private Investments, Inc., a subsidiary of OppenheimerFunds Inc.,OFI Private Investments, Inc., a subsidiary of OppenheimerFunds Inc.,OFI Private Investments, Inc., a subsidiary of OppenheimerFunds Inc.,OFI Private Investments, Inc., a subsidiary of OppenheimerFunds Inc.","Dreyfus Corporation,OppenheimerFunds Inc.,The Vanguard Group®,Thornburg Investment Management, Inc.,TIAA-CREF"
1067,35,Scholar'sEdge,scholarsedge,NEW MEXICO - THE EDUCATION TRUST BOARD OF NEW MEXICO,529 Savings Plan,advisor_sold,Advisor Sold,NM,New Mexico,http://www.scholarsedge529.com,866-529-7283,P.O. Box 173691,,"Denver, CO 80217",866-529-7283,866-529-7283,303-768-6529,,www.scholarsedge529.com/,"www.scholarsedge529.com/j2ee/www/litcenter/litCategory.do?path=0,0,0&plan=NMAdvisorSold&site=den-prod-ofi529-1",www.scholarsedge529.com/OFI529/PN/generated/en_us/PrimaryNavigation_05-26-09-175422.xml,www.scholarsedge529.com/shWebApp/pages/Login.jsf,www.scholarsedge529.com/OFI529/AP/PerformanceInfo.do?term=ytd,No,No state residency requirements.,"OFI Private Investments, Inc., a subsidiary of OppenheimerFunds Inc.,OFI Private Investments, Inc., a subsidiary of OppenheimerFunds Inc.,OFI Private Investments, Inc., a subsidiary of OppenheimerFunds Inc.,OFI Private Investments, Inc., a subsidiary of OppenheimerFunds Inc.,OFI Private Investments, Inc., a subsidiary of OppenheimerFunds Inc.","American Century Investment Services, Inc.,Invesco Aim Capital Management, Inc.,MainStay Investments,OppenheimerFunds Inc.,Thornburg Investment Management, Inc."
1068,32,Nevada Prepaid Tuition Program,nevada-prepaid-tuition-program,NEVADA - STATE TREASURER KATE MARSHALL,529 Prepaid Plan,prepaid_plan,Prepaid Plan,NV,Nevada,http://NVPrepaid.gov,1-888-477-2667,555 East Washington Ave.,Suite 4600,"Las Vegas, NV 89101",1-888-477-2667,1-888-477-2667,702-486-3246,prepaidtuition@nevadatreasurer.gov,nvprepaid.gov/,www.nvprepaid.gov/,nvprepaid.gov/,nvprepaid.gov/,,Yes,Account owner or beneficiary must be state resident.,Nevada Higher Education Tuition Trust Fund,State Treasury
1069,32,SSgA Upromise 529 Plan,ssga-upromise-529-plan,NEVADA - STATE TREASURER KATE MARSHALL,529 Savings Plan,direct_sold,Direct Sold,NV,Nevada,http://www.ssga.upromise529.com,1-800-587-7305,P.O. Box 55578,,"Boston, MA 02205",1-800-587-7305,1-800-587-7305,,clientservice@ssga.upromise529.com,www.ssga.upromise529.com/,cdn.unite529.com/f/248/21630/7d/im.uprinv.com/rc/sr2/ucf/programDescription.pdf,www.ssga.upromise529.com/ucftpl/uii529enroll/gettingStarted.do,www.ssga.upromise529.com/ucftpl/auth/loginFormAction.do?tplcb=%2Fucftpl%2Facctmaint%2FacctList.do,www.ssga.upromise529.com/ucftpl/fundperform/fundPricePerform.do,No,No state residency requirements.,"Ascensus Broker Dealer Services Inc.,Ascensus Broker Dealer Services Inc.","Sallie Mae Bank,State Street Global Advisors"
1070,32,The Vanguard 529 College Savings Plan,the-vanguard-529-college-savings-plan,NEVADA - STATE TREASURER KATE MARSHALL,529 Savings Plan,direct_sold,Direct Sold,NV,Nevada,https://personal.vanguard.com/us/whatweoffer/college/vanguard529,1-866-734-4530,P.O. Box 55111,,"Boston, MA 02205",1-866-734-4530,1-866-734-4530,,VGI529@vanguard.com,personal.vanguard.com/us/whatweoffer/college/vanguard529,,,,,No,No state residency requirements.,"Upromise Investments, Inc.",The Vanguard Group®
1071,32,USAA College Savings Plan,usaa-college-savings-plan,NEVADA - STATE TREASURER KATE MARSHALL,529 Savings Plan,direct_sold,Direct Sold,NV,Nevada,https://www.usaa.com/inet/imco_storefront/ImcoStorefront/CollegeSavings?0,1-800-292-8825,P.O. Box 55354,,"Boston, MA 02205",1-800-292-8825,1-800-292-8825,,,www.usaa.com/inet/pages/investments_college_savings_529plan,,,,,No,No state residency requirements.,"Upromise Investments, Inc.",USAA Investment Management Corporation
1072,36,New York's 529 College Savings Program Direct Plan,new-yorks-529-college-savings-program-direct-plan,NEW YORK - HIGHER EDUCATION SERVICES CORPORATION AND THE OFFICE OF THE STATE COMPTROLLER,529 Savings Plan,direct_sold,Direct Sold,NY,New York,http://www.nysaves.org,1-877-697-2837,PO Box 55440,,"Boston, MA 02205",1-877-697-2837,1-877-697-2837,,NY529@nysaves.org,www.nysaves.org/,uii.nysaves.s.upromise.com/nytpl/literatureforms/getPDFForm.do?pdf=enrollKit.pdf,uii.nysaves.s.upromise.com/nytpl/displayServlet?su=ny.3.3,uii.nysaves.s.upromise.com/nytpl/acctmaint/acctList.do,,No,No state residency requirements.,"Ascensus Investment Advisors LLC.,Ascensus Investment Advisors LLC.","Ascensus Investment Advisors LLC.,The Vanguard Group®"
1073,36,New York's 529 Advisor-Guided College Savings Program,new-yorks-529-advisor-guided-college-savings-program,NEW YORK - HIGHER EDUCATION SERVICES CORPORATION AND THE OFFICE OF THE STATE COMPTROLLER,529 Savings Plan,advisor_sold,Advisor Sold,NY,New York,http://www.ny529advisor.com,800-774-2108,P.O. Box 55498,,"Boston, MA 02205-5498",800-774-2108,800-774-2108,,,www.ny529advisor.com/,www.ny529advisor.com/,,www.ny529advisor.com/,,No,No state residency requirements.,"Upromise Investments, Inc.,Upromise Investments, Inc.","JPMorgan Investment Advisors Inc.,State Street Global Advisors"
1074,39,CollegeAdvantage Direct 529 Savings Plan,collegeadvantage-direct-529-savings-plan,OHIO - OHIO TUITION TRUST AUTHORITY,529 Savings Plan,direct_sold,Direct Sold,OH,Ohio,http://www.CollegeAdvantage.com,800-233-6734,P.O. Box 219305,,"Kansas City, MO 64121-9305",800-233-6734,800-233-6734,,info@CollegeAdvantage.com,www.collegeadvantage.com/,www.collegeadvantage.com/docs/enrollment-forms/offering-statement-and-participation-agreement.pdf,www.collegeadvantage.com/request-enrollment-forms,www.mycollegeadvantagedirect.com/ohtpl/auth/loginFormAction.do?tplcb=%2Fohtpl%2Facctmaint%2FacctList.do,www.collegeadvantage.com/docs/investment-option-selection-guide/investment_option_selection_guide.pdf,No,No state residency requirements.,"Ohio Tuition Trust Authority,Ohio Tuition Trust Authority,Ohio Tuition Trust Authority,Ohio Tuition Trust Authority,Ohio Tuition Trust Authority","Fifth Third Bank,GE Asset Management,Multiple Investment Managers,PIMCO,The Vanguard Group®"
1075,39,"CollegeAdvantage Advisor 529, offered by BlackRock",collegeadvantage-advisor-529-offered-by-blackrock,OHIO - OHIO TUITION TRUST AUTHORITY,529 Savings Plan,advisor_sold,Advisor Sold,OH,Ohio,http://www.blackrock.com/collegeadvantage,1-866-529-8582,P.O. Box 9783,,"Providence, RI 02940-9783",1-866-529-8582,1-866-529-8582,,,www.blackrock.com/collegeadvantage,www.blackrock.com/collegeadvantage,,,www.blackrock.com/collegeadvantage,No,No state residency requirements.,"BlackRock Advisors,BlackRock Advisors,BlackRock Advisors,BlackRock Advisors,BlackRock Advisors","BlackRock,BlackRock iShares,ING Funds,Rainier Funds,Voya Investment Management"
1076,40,Oklahoma College Savings Plan,oklahoma-college-savings-plan,OKLAHOMA - STATE TREASURER KEN MILLER,529 Savings Plan,direct_sold,Direct Sold,OK,Oklahoma,http://www.ok4saving.org,1-877-654-7284,P. O. Box 8193,,"Boston, MA 02266-8193",1-877-654-7284,1-877-654-7284,,,www.ok4saving.org/,,www.ok4saving.org/account/open.html,www3.financialtrans.com/tf/FANWeb?tx=Disclaim&cz=6190800001410,,No,No state residency requirements.,TIAA-CREF,TIAA-CREF
1077,41,MFS 529 Savings Plan,mfs-529-savings-plan,OREGON - OREGON STATE TREASURY,529 Savings Plan,advisor_sold,Advisor Sold,OR,Oregon,http://annex.mfs.com/subs/oregon/index.html,1-866-529-1637,"MFS Service Center, Inc.",P.O. Box 55824,"Boston, MA 02205-5824",1-866-529-1637,1-866-529-1637,,,annex.mfs.com/subs/oregon/index.html,,,,,No,No state residency requirements.,MFS Investment Management,MFS Investment Management
1078,41,Oregon College Savings Plan,oregon-college-savings-plan,OREGON - OREGON STATE TREASURY,529 Savings Plan,direct_sold,Direct Sold,OR,Oregon,http://www.oregoncollegesavings.com,1-866-772-8464,P.O. Box 55914,,"Boston, MA 02205-5914",1-866-772-8464,1-866-772-8464,,,www.oregoncollegesavings.com/,www.oregoncollegesavings.com/documents/or_disclosure.pdf,www.oregoncollegesavings.com/open/index.shtml,www3.financialtrans.com/tf/FANWeb?tx=Disclaim&cz=6190800001417,www.oregoncollegesavings.com/performance/index.shtml,No,No state residency requirements.,TIAA-CREF,TIAA-CREF
1079,42,Pennsylvania 529 Guaranteed Savings Plan,pennsylvania-529-guaranteed-savings-plan,PENNSYLVANIA - PENNSYLVANIA TREASURY DEPARTMENT,529 Prepaid Plan,prepaid_plan,Prepaid Plan,PA,Pennsylvania,http://www.pa529.com,1-800-440-4000,Processing Center,P.O. Box 55463,"Boston, MA 02205-8114",1-800-440-4000,1-800-440-4000,1-781-707-8829,pagsp@patreasury.gov,www.pa529.com/,www.pa529.com/lib/pdf/GSP-Disclosure-Statement.pdf,www.mypa529gspaccount.com/gsptpl/uii529enroll/gettingStarted.do,www.mypa529gspaccount.com/gsptpl/auth/loginFormAction.do?tplcb=%2Fgsptpl%2Facctmaint%2FacctList.do,,Yes,Account owner or beneficiary must be state resident.,Pennsylvania Treasury Department,Pennsylvania Treasury Department
1080,42,Pennsylvania 529 Investment Plan,pennsylvania-529-investment-plan,PENNSYLVANIA - PENNSYLVANIA TREASURY DEPARTMENT,529 Savings Plan,direct_sold,Direct Sold,PA,Pennsylvania,http://www.pa529.com,800-440-4000,Processing Center,P.O. Box 55378,"Boston, MA 02205-5378",800-440-4000,800-440-4000,,PAIP@patreasury.gov,www.pa529.com/,www.pa529.com/lib/pdf/IP-Disclosure-Statement.pdf,www.mypa529ipaccount.com/patpl/uii529enroll/gettingStarted.do,www.mypa529ipaccount.com/patpl/auth/loginFormAction.do?tplcb=%2Fpatpl%2Facctmaint%2FacctList.do,www.mypa529ipaccount.com/patpl/fundperform/fundPricePerform.do,No,No state residency requirements.,Pennsylvania Treasury Department,The Vanguard Group®
1081,44,CollegeBoundfund - Advisor-sold plan,collegeboundfund-advisor-sold-plan,RHODE ISLAND - GENERAL TREASURER GINA RAIMONDO,529 Savings Plan,advisor_sold,Advisor Sold,RI,Rhode Island,http://www.collegeboundfund.com,888-324-5057,PO Box 786008,,"San Antonio, TX 78278-9923",888-324-5057,888-324-5057,,,www.collegeboundfund.com/,"www.alliancebernstein.com/ABCOM/segment_homepages/investments/us/literature_forms_result.htm?dsNav=Ro:0,Aro:0,Ns:p.title%7c101%7c1%7c,N:4294966645,Nr:AND(OR(4294967258%2c4294967283))",,www.alliancebernstein.com/abcom/web/LinkedSite.aspx?key=ab.retail.INVaccts.cbf,www.alliancebernstein.com/abcom/product_center/abi_home/pricing_performance.htm?ptab=CollegeBoundFund,No,No state residency requirements.,"AllianceBernstein Investments, Inc.","AllianceBernstein Investments, Inc."
1082,44,CollegeBoundfund - Direct-sold plan,collegeboundfund-direct-sold-plan,RHODE ISLAND - GENERAL TREASURER GINA RAIMONDO,529 Savings Plan,direct_sold,Direct Sold,RI,Rhode Island,http://www.collegeboundfund.com/ri,888-324-5057,PO Box 786008,,"San Antonio, TX 78278-9923",888-324-5057,888-324-5057,,,www.collegeboundfund.com/ri,www.alliancebernstein.com/investments/us/DesktopContainer.aspx?nid=5383,www.alliancebernstein.com/ri/home.aspx?cid=49982&nid=0&sid=46,www.alliancebernstein.com/investments/us/LinkedSite.aspx?secure=true&cid=17515,www.alliancebernstein.com/abcom/product_center/abi_home/pricing_performance.htm?ptab=CollegeBoundFund,Yes,Account owner or beneficiary must be state resident.,"AllianceBernstein Investments, Inc.,AllianceBernstein Investments, Inc.","AllianceBernstein Investments, Inc.,The Vanguard Group®"
1083,45,Future Scholar 529 College Savings Plan - Advisor Program,future-scholar-529-college-savings-plan-advisor-program,"SOUTH CAROLINA - SC OFFICE OF STATE TREASURER, CURTIS M. LOFTIS, JR.",529 Savings Plan,advisor_sold,Advisor Sold,SC,South Carolina,http://www.futurescholar.com/,Ph 888-244-5674,PO Box 8036,,"Boston, MA 02266-8036",Ph 888-244-5674,888-244-5674,,serviceinquiries@columbiamanagement.com,www.futurescholar.com/UserRelationship/UserRelationshipPage.htm,www.futurescholar.com/FormsAndLiterature/ViewAndOrderLit/LitDetails?Category={16051779-6B97-4089-AE13-276501ADB017},www.futurescholar.com/FormsAndLiterature/ViewAndOrderLit/LitDetails?Category={16051779-6B97-4089-AE13-276501ADB017},www3.financialtrans.com/tf/FANWeb?tx=Disclaim&cz=a02141120120108001802,,No,No state residency requirements.,"Columbia Management Group, LLC","Columbia Management Group, LLC"
1084,45,SC Tuition Prepayment Program (SCTPP),sc-tuition-prepayment-program-sctpp,SOUTH CAROLINA - SC OFFICE OF STATE TREASURER,529 Prepaid Plan,prepaid_plan,Prepaid Plan,SC,South Carolina,http://www.sctpp.sc.gov,1-888-772-4723,PO Box 11778,,"Columbia, SC 29211",1-888-772-4723,1-888-772-4723,1-800-519-4652,kristi.elrod@sto.sc.gov,www.sctpp.sc.gov/,www.sctpp.sc.gov/contractdocuments/,www.sctpp.sc.gov/frequentlyaskedquestions/,www.prima-wave.com/redirectsc.asp,,Yes,Account owner or beneficiary must be state resident.,"Hon. Curtis M. Loftis, Jr.","SC Office of State Treasurer, Curtis M. Loftis, Jr."
1085,45,Future Scholar 529 College Savings Plan - Direct Investment Program,future-scholar-529-college-savings-plan-direct-investment-program,"SOUTH CAROLINA - SC OFFICE OF STATE TREASURER, CURTIS M. LOFTIS, JR.",529 Savings Plan,direct_sold,Direct Sold,SC,South Carolina,http://www.futurescholar.com,888-244-5674,PO Box 8036,,"Boston, MA 02266-8036",888-244-5674,888-244-5674,,serviceinquiries@columbiamanagement.com,www.futurescholar.com/UserRelationship/UserRelationshipPage.htm,www.futurescholar.com/FormsAndLiterature/ViewAndOrderLit/LitDetails?Category={0C8F4F74-B9CC-4D1F-B8A7-C26F4A42A470},www.futurescholar.com/FormsAndLiterature/ViewAndOrderLit/LitDetails?Category={76290757-8237-450F-AC22-A20285287963},www3.financialtrans.com/tf/FANWeb?tx=Disclaim&cz=a02141120120108001802,,No,No state residency requirements.,"Columbia Management Group, LLC","Columbia Management Group, LLC"
1086,46,CollegeAccess 529,collegeaccess-529,SOUTH DAKOTA - SOUTH DAKOTA INVESTMENT COUNCIL,529 Savings Plan,direct_sold_advisor_sold,Direct Sold and Advisor Sold,SD,South Dakota,http://www.collegeaccess529.com,1-866-529-7462,P.O. Box 55769,,"Boston, MA 02205-5769",1-866-529-7462,1-866-529-7462,,,www.collegeaccess529.com/,www.collegeaccess529.com/Pages/LiteratureandForms.aspx,www.collegeaccess529.com/Pages/LiteratureandForms.aspx,www3.financialtrans.com/tf/Vision?tx=VisStartup&cz=6210818081413,www.collegeaccess529.com/Pages/Performance.aspx,No,No state residency requirements.,"Allianz Global Investors Distributors LLC,Allianz Global Investors Distributors LLC,Allianz Global Investors Distributors LLC,Allianz Global Investors Distributors LLC,Allianz Global Investors Distributors LLC,Allianz Global Investors Distributors LLC,Allianz Global Investors Distributors LLC,Allianz Global Investors Distributors LLC,Allianz Global Investors Distributors LLC,Allianz Global Investors Distributors LLC,Allianz Global Investors Distributors LLC,Allianz Global Investors Distributors LLC,Allianz Global Investors Distributors LLC","Allianz,Columbia Management Group, LLC,Dodge and Cox,Dreyfus Corporation,Dreyfus Corporation,Franklin Templeton Investments,ING Funds,Marsico Capital Management, LLC,PIMCO,Royce,RS,Thornburg Investment Management, Inc.,TIAA-CREF"
1087,47,TNStars College Savings 529 Program,tnstars-college-savings-529-program,"TENNESSEE - STATE TREASURER DAVID H. LILLARD, JR.",529 Savings Plan,direct_sold,Direct Sold,TN,Tennessee,http://tnstars.com/,855-386-7827,P.O. Box 198801,,"Nashville, TN 37219",855-386-7827,855-386-7827,615-401-6816,TN.Stars@tn.gov,tnstars.com/,,tnstars.com/forms/,secure.tnstars529program.com/paweb/logins/login.aspx?planname=TNstars529,,No,No state residency requirements.,Tennessee Department of Treasury,Tennessee Department of Treasury
1088,47,Tennessee Baccalaureate Education System Trust Prepaid Plan,tennessee-baccalaureate-education-system-trust-prepaid-plan,"TENNESSEE - STATE TREASURER DAVID H. LILLARD, JR.",529 Prepaid Plan,prepaid_plan,Prepaid Plan,TN,Tennessee,http://www.tnbest.org,1-888-486-2378,P.O. Box 198786,,"Nashville, TN 37219-8786",1-888-486-2378,1-888-486-2378,615-401-6816,BEST.office@state.tn.us,www.tnbest.org/,www.treasury.state.tn.us/best/index.htm,,,,Yes,Account owner or beneficiary must be state resident.,State Treasury,State Treasury
1089,48,Texas Tuition Promise Fund,texas-tuition-promise-fund,TEXAS - TEXAS PREPAID HIGHER EDUCATION TUITION BOARD,529 Prepaid Plan,prepaid_plan,Prepaid Plan,TX,Texas,http://www.texastuitionpromisefund.com,800-445-4723,PO Box 44306,,"Jacksonville, FL 32231-4306",800-445-4723,800-445-4723,800-516-4652,,www.texastuitionpromisefund.com/,"www.texastuitionpromisefund.com/j2ee/www/litcenter/litCategory.do?path=0,0,0",www.texastuitionpromisefund.com/OFI529/PN/generated/en_us/PrimaryNavigation_07-09-08-170201.xml,www.texastuitionpromisefund.com/,www.texastuitionpromisefund.com/content/tips-tools/forms-materials,Yes,Account owner or beneficiary must be state resident.,"OFI Private Investments, Inc., a subsidiary of OppenheimerFunds Inc.,OFI Private Investments, Inc., a subsidiary of OppenheimerFunds Inc.,OFI Private Investments, Inc., a subsidiary of OppenheimerFunds Inc.,OFI Private Investments, Inc., a subsidiary of OppenheimerFunds Inc.","Dreyfus Corporation,OFI Private Investments, Inc.,The Vanguard Group®,Wells Fargo Advantage Asset Allocation Fund"
1090,48,Texas College Savings Plan,texas-college-savings-plan,TEXAS - TEXAS PREPAID HIGHER EDUCATION TUITION BOARD,529 Savings Plan,direct_sold,Direct Sold,TX,Texas,http://www.texascollegesavings.com,800-445-4723,PO Box 173881,,"Denver, CO 80217",800-445-4723,800-445-4723,303-768-6529,,www.texascollegesavings.com/,www.texascollegesavings.com/litcenter/529/txdirectsold/literature?site=den-prod-529-2&plan=TXDirectSold,www.texascollegesavings.com/OFI529/BI/enroll.jsp,www.texascollegesavings.com/,www.texascollegesavings.com/OFI529/AP/PerformanceInfo.do?term=ytd,No,No state residency requirements.,"OFI Private Investments, Inc., a subsidiary of OppenheimerFunds Inc.,OFI Private Investments, Inc., a subsidiary of OppenheimerFunds Inc.,OFI Private Investments, Inc., a subsidiary of OppenheimerFunds Inc.,OFI Private Investments, Inc., a subsidiary of OppenheimerFunds Inc.,OFI Private Investments, Inc., a subsidiary of OppenheimerFunds Inc.","Dreyfus Corporation,Multiple Investment Managers,OppenheimerFunds Inc.,The Vanguard Group®,Thornburg Investment Management, Inc."
1091,48,Texas Guaranteed Tuition Plan,texas-guaranteed-tuition-plan,TEXAS - TEXAS PREPAID HIGHER EDUCATION TUITION BOARD,529 Prepaid Plan,prepaid_plan,Prepaid Plan,TX,Texas,http://www.tgtp.org,800-445-4723,PO Box 13407,,"Austin, TX 78711-3407",800-445-4723,800-445-4723,512-475-0081,texas.tomorrow@cpa.state.tx.us,www.tgtp.org/,,www.tgtp.org/,secure.texastomorrowfunds.org/pls/prod/twbkwbis.p_wwwlogin,,Yes,Account owner or beneficiary must be state resident.,"Texas Prepaid Higher Education Tuition Board,Texas Prepaid Higher Education Tuition Board,Texas Prepaid Higher Education Tuition Board,Texas Prepaid Higher Education Tuition Board,Texas Prepaid Higher Education Tuition Board,Texas Prepaid Higher Education Tuition Board","Advantus,Grantham Mayo (GMO),Northern Trust Investments, N.A.,Northern Trust TIPS Index,Rhumbline Advisors,Shenkman"
1092,48,LoneStar 529 Plan,lonestar-529-plan,TEXAS - TEXAS PREPAID HIGHER EDUCATION TUITION BOARD,529 Savings Plan,advisor_sold,Advisor Sold,TX,Texas,http://www.lonestar529.com,800-445-4723,PO Box 173881,,"Denver, CO 80217",800-445-4723,800-445-4723,303-768-6529,,www.lonestar529.com/,www.lonestar529.com/litcenter/529/txadvisorsold/literature?site=den-prod-529-1&plan=TXAdvisorSold,www.lonestar529.com/OFI529/BI/enroll.jsp,www.lonestar529.com/shWebApp/pages/Login.jsf,www.lonestar529.com/OFI529/AP/PerformanceInfo.do?term=ytd,No,No state residency requirements.,"OFI Private Investments, Inc., a subsidiary of OppenheimerFunds Inc.,OFI Private Investments, Inc., a subsidiary of OppenheimerFunds Inc.,OFI Private Investments, Inc., a subsidiary of OppenheimerFunds Inc.,OFI Private Investments, Inc., a subsidiary of OppenheimerFunds Inc.,OFI Private Investments, Inc., a subsidiary of OppenheimerFunds Inc.","Dreyfus Corporation,Multiple Investment Managers,OppenheimerFunds Inc.,Thornburg Investment Management, Inc.,TIAA-CREF"
1093,49,Utah Educational Savings Plan,utah-educational-savings-plan,UTAH - UTAH STATE BOARD OF REGENTS,529 Savings Plan,direct_sold,Direct Sold,UT,Utah,http://www.uesp.org,800-418-2551,PO Box 145100,,"Salt Lake City, UT 84114-5100",800-418-2551,800-418-2551,800-214-2956,info@uesp.org,www.uesp.org/,www.uesp.org/forms.html,login.uesp.org/setup/AccountType.aspx,login.uesp.org/Login.aspx?ReturnUrl=%2fDefault.aspx,www.uesp.org/returns.html,No,No state residency requirements.,"Utah Higher Education Assistance Authority,Utah Higher Education Assistance Authority,Utah Higher Education Assistance Authority,Utah Higher Education Assistance Authority,Utah Higher Education Assistance Authority","Dimensional Fund Advisors,Office of the Utah State Treasurer,Sallie Mae Bank,The Vanguard Group®,US Bank"
1094,51,Virginia529 inVEST,virginia529-invest,VIRGINIA - VIRGINIA529,529 Savings Plan,direct_sold,Direct Sold,VA,Virginia,http://www.virginia529.com,1-888-567-0540,9001 Arboretum Parkway,,"North Chesterfield, VA 23236",1-888-567-0540,1-888-567-0540,1-866-757-1295,customerservice@virginia529.com,www.virginia529.com/,www.virginia529.com/forms/index.php,www.virginia529.com/enroll/index.php,myaccount.virginia529.com/pls/prod/twpkwbis.P_wwwlogin,www.virginia529.com/invest/performance/index.php,No,No state residency requirements.,"Virginia529,Virginia529,Virginia529,Virginia529,Virginia529,Virginia529,Virginia529,Virginia529,Virginia529,Virginia529,Virginia529","Aberdeen,American Funds,Franklin Templeton Investments,INVESCO Institutional (N.A.), Inc.,Morgan Stanley,Multiple Investment Managers,Parnassus Investments,Prudential,Rothschild Asset Management, Inc.,Stone Harbor Investment Partners,The Vanguard Group®"
1095,51,Virginia529 prePAID,virginia529-prepaid,VIRGINIA - VIRGINIA529,529 Prepaid Plan,prepaid_plan,Prepaid Plan,VA,Virginia,http://www.virginia529.com,1-888-567-0540,9001 Arboretum Parkway,,"North Chesterfield, VA 23236",1-888-567-0540,1-888-567-0540,1-866-757-1295,customerservice@virginia529.com,www.virginia529.com/,www.virginia529.com/documents/index.php,www.virginia529.com/enroll/index.php,myaccount.virginia529.com/pls/prod/twpkwbis.P_wwwlogin,,Yes,Account owner or beneficiary must be state resident.,"Virginia529,Virginia529,Virginia529,Virginia529,Virginia529,Virginia529,Virginia529,Virginia529,Virginia529,Virginia529,Virginia529,Virginia529,Virginia529,Virginia529,Virginia529,Virginia529,Virginia529,Virginia529,Virginia529,Virginia529,Virginia529,Virginia529,Virginia529,Virginia529,Virginia529,Virginia529","Aberdeen,Adams Street Partners, LLC,Advent Capital,Aether Investment Partners,American Funds,Aurora Investment Managment, LLC,Aventura Holdings, LLC,BlackRock,Commonfund Capital Inc.,Donald Smith & Co.,Ferox Capital,Franklin Templeton Investments,Harmonic Alpha Plus Macro Fund,INVESCO Institutional (N.A.), Inc.,Private Advisors LLC,Prudential,Shenkman,State Street Global Advisors,State Treasury,Stone Harbor Investment Partners,The Vanguard Group®,The Vanguard Group®,Thompson, Siegel & Walmsley, Inc.,UBS Global Asset Management (Americas) Inc.,Wellington Capital Management,Westfield Capital Management"
1096,51,College America,college-america,VIRGINIA - VIRGINIA COLLEGE SAVINGS PLAN,529 Savings Plan,advisor_sold,Advisor Sold,VA,Virginia,http://www.americanfunds.com/college.html,1-800-421-4225,American Funds Service Company,P.O. Box 2280,"Norfolk, VA 23501-2280",1-800-421-4225,1-800-421-4225,,,www.americanfunds.com/college.html,www.americanfunds.com/pdf/cagebr-001_529pd.pdf,,www.americanfunds.com/,,No,No state residency requirements.,American Funds Service Company,Capital Research and Management Company
1097,51,College Wealth,collegewealth,VIRGINIA - VIRGINIA529,529 Savings Plan,direct_sold,Direct Sold,VA,Virginia,http://www.virginia529.com,1-888-567-0540,9001 Arboretum Parkway,,"North Chesterfield, VA 23236",1-888-567-0540,1-888-567-0540,1-866-757-1295,customerservice@virginia529.com,www.virginia529.com/,www.virginia529.com/collegewealth/index.php,www.virginia529.com/collegewealth/index.php,myaccount.virginia529.com/pls/prod/twpkwbis.P_wwwlogin,,No,No state residency requirements.,"Virginia529,Virginia529","Branch Banking & Trust,Union First Market Bank"
1098,50,Vermont Higher Education Investment Plan,vermont-higher-education-investment-plan,VERMONT - VERMONT STUDENT ASSISTANCE CORP.,529 Savings Plan,direct_sold,Direct Sold,VT,Vermont,http://services.vsac.org,1-800-637-5860,P.O. Box 8101,,"Boston, MA 02266-8101",1-800-637-5860,1-800-637-5860,,,services.vsac.org/ilwwcm/connect/VSAC/Save+for+College,www.vsac-vheip.org/pdf/vt_disc.pdf,www3.financialtrans.com/tf/FANWeb?tx=Disclaim&cz=6190800002119,www3.financialtrans.com/tf/FANWeb?tx=Disclaim&cz=6190800002119,,Unknown,"At this time, residency information has not been added for this plan.","TIAA-CREF,TIAA-CREF","TIAA-CREF,Vermont Student Assistance Corporation Trust"
1099,53,Guaranteed Education Tuition (GET),guaranteed-education-tuition-get,WASHINGTON - WASHINGTON STUDENT ACHIEVEMENT COUNCIL,529 Prepaid Plan,prepaid_plan,Prepaid Plan,WA,Washington,http://www.get.wa.gov,800-955-2318,PO Box 43450,,"Olympia, WA 98504-3450",800-955-2318,800-955-2318,360-704-6200,GETInfo@wsac.wa.gov,www.get.wa.gov/,www.get.wa.gov/brochuresandforms.shtml,fortress.wa.gov/wsac/getportal/Anonymous/AnonymousPage.aspx?page=orderForm,fortress.wa.gov/wsac/getportal/Login.aspx,,Yes,Account owner or beneficiary must be state resident.,GET Committee,Washington State Investment Board (WSIB)
1100,55,Edvest College Savings Plan,edvest-college-savings-plan,WISCONSIN - WISCONSIN DEPARTMENT OF ADMINISTRATION,529 Savings Plan,direct_sold,Direct Sold,WI,Wisconsin,http://www.Edvest.com,1-888-338-3789,P.O. Box 55189,,"Boston, MA 02205-5189",1-888-338-3789,1-888-338-3789,,edvest@wisconsin.gov,www.edvest.com/,www.edvest.com/documents/wi_disclosure.pdf,edvest.com/open/index.shtml,www.edvest.com/,www.edvest.com/invest/historical.shtml,No,No state residency requirements.,"TIAA-CREF Tuition Financing Inc.,TIAA-CREF Tuition Financing Inc.,TIAA-CREF Tuition Financing Inc.,TIAA-CREF Tuition Financing Inc.,TIAA-CREF Tuition Financing Inc.,TIAA-CREF Tuition Financing Inc.","Dimensional Fund Advisors,Franklin Templeton Investments,Multiple Managers,PIMCO,T. Rowe Price,TIAA-CREF"
1101,55,Tomorrow's Scholar College Savings Plan,tomorrows-scholar-college-savings-plan,WISCONSIN - WISCONSIN DEPARTMENT OF ADMINISTRATION,529 Savings Plan,advisor_sold,Advisor Sold,WI,Wisconsin,http://www.tomorrowsscholar.com,1-866-677-6933,c/o Voya Investment Management,P.O. Box 9883,"Providence, RI 02940-9984",1-866-677-6933,1-866-677-6933,,,www.tomorrowsscholar.com/,529plans.investments.voya.com/idc/groups/public/documents/investor_education/fundspace_w529-plandoc.pdf,529plans.investments.voya.com/Wisconsin/index.htm,www.tomorrowsscholar.com/,529plans.investments.voya.com/Wisconsin/Investments/Prices-Performance/index.htm,No,No state residency requirements.,"TIAA-CREF/Voya Investment Management,TIAA-CREF/Voya Investment Management,TIAA-CREF/Voya Investment Management,TIAA-CREF/Voya Investment Management,TIAA-CREF/Voya Investment Management,TIAA-CREF/Voya Investment Management,TIAA-CREF/Voya Investment Management,TIAA-CREF/Voya Investment Management,TIAA-CREF/Voya Investment Management,TIAA-CREF/Voya Investment Management,TIAA-CREF/Voya Investment Management,TIAA-CREF/Voya Investment Management,TIAA-CREF/Voya Investment Management,TIAA-CREF/Voya Investment Management,TIAA-CREF/Voya Investment Management,TIAA-CREF/Voya Investment Management,TIAA-CREF/Voya Investment Management","Baillie Gifford,BlackRock,CBRE Clarion Securities,Columbia Management Investment Advisers, LLC and its affiliates,Delaware Investments,JP Morgan,Lazard Asset Management,LSV Asset Management,Multiple Managers,Northern Trust Investments, N.A.,PIMCO,RBC Global Management,T. Rowe Price,Templeton Global Advisors Limited,TIAA-CREF,Voya Investment Management,Wellington Management"
1102,54,SMART529 WV Direct,smart529-wv-direct,WEST VIRGINIA - WEST VIRGINIA COLLEGE PREPAID TUITION AND SAVINGS BOARD OF TRUSTEES,529 Savings Plan,direct_sold,Direct Sold,WV,West Virginia,http://www.SMART529.com,866-574-3542,PO Box 55362,,"Boston, MA 02205",866-574-3542,866-574-3542,,,www.smart529.com/,www.smart529.com/cs/Satellite?c=Page&cid=1150849738717&pagename=College_Savings%2FPage%2FCS_CommonPage#info-1150850000145,www.smart529.com/cs/Satellite?c=Page&cid=1150849738717&pagename=College_Savings%2FPage%2FCS_CommonPage#info-1150850000145,www.smart529direct.com/wvdtpl/auth/loginFormAction.do?tplcb=%2Fwvdtpl%2Facctmaint%2FacctList.do,www.smart529.com/cs/Satellite?blobcol=urldata&blobheader=application%2Fpdf&blobheadername1=Content-Disposition&blobheadervalue1=inline%3B+filename%3D529D.pdf&blobkey=id&blobnocache=false&blobtable=MungoBlobs&blobwhere=1291062949682&ssbinary=true,Yes,Account owner or beneficiary must be state resident.,"Hartford Life Insurance Company,Hartford Life Insurance Company","INVESCO Institutional (N.A.), Inc.,The Vanguard Group®"
1103,54,SMART529 Select,smart529-select,WEST VIRGINIA - WEST VIRGINIA COLLEGE PREPAID TUITION AND SAVINGS BOARD OF TRUSTEES,529 Savings Plan,direct_sold,Direct Sold,WV,West Virginia,http://www.SMART529Select.com,866-574-3542,PO Box 55371,,"Boston, MA 02205",866-574-3542,866-574-3542,,,www.smart529select.com/,www.smart529select.com/servlet/Satellite?c=Page&cid=1150848332471&pagename=College_Savings%2FPage%2FCS_CommonPage,www.smart529select.com/servlet/Satellite?c=Page&cid=1150847529333&pagename=College_Savings%2FPage%2FCS_CommonPage,www.select529wv.com/wvstpl/auth/loginFormAction.do?tplcb=%2Fwvstpl%2Facctmaint%2FacctList.do,www.smart529select.com/servlet/Satellite?c=Page&cid=1150848332471&pagename=College_Savings%2FPage%2FCS_CommonPage,No,No state residency requirements.,Hartford Life Insurance Company,Dimensional Fund Advisors
1104,54,The Hartford SMART529,the-hartford-smart529,WEST VIRGINIA - WEST VIRGINIA COLLEGE PREPAID TUITION AND SAVINGS BOARD OF TRUSTEES,529 Savings Plan,advisor_sold,Advisor Sold,WV,West Virginia,http://www.hartfordfunds.com,866-574-3542,PO Box 55359,,"Boston, MA 02205",866-574-3542,866-574-3542,,,www.hartfordfunds.com/college-saving/overview-smart-529.individual-investors.html,www.hartfordfunds.com/dam/en/docs/pub/forms/collegesavingforms/thehartfordSMART529forms/enrollment/529-OFF.pdf,www.hartfordfunds.com/college-saving/overview-smart-529.individual-investors.html,www.smart529advisor.com/wvatpl/auth/loginFormAction.do?tplcb=%2Fwvatpl%2Facctmaint%2FacctList.do,www.hartfordfunds.com/college-saving/overview-smart-529/performance-rates.individual-investors.html#content0-tab,No,No state residency requirements.,"Hartford Life Insurance Company,Hartford Life Insurance Company,Hartford Life Insurance Company","INVESCO Institutional (N.A.), Inc.,MFS Investment Management,The Hartford Mutual Funds"
