plan_id,name,address_line_1,address_line_2,city_state_zip,phone,toll_free,fax,email,home_url,offering_material_url,enrollment_material_url,online_account_access_url,general_performance_url
1001,CollegeCounts 529 Fund,PO Box 85290,,"Lincoln, NE 68501-5290",866-529-2228,866-529-2228,402-323-1797,,www.collegecounts529.com/,www.collegecounts529.com/accountsetup.asp,www.collegecounts529.com/pre_online_enrollment.asp,csp.ubtrust.com/paweb/logins/login.aspx?planname=al,www.collegecounts529.com/performance.asp
1002,CollegeCounts 529 Fund Advisor Plan,PO Box 85290,,"Lincoln, NE 68501-5290",866-529-2228,866-529-2228,402-323-1797,,www.collegecounts529advisor.com/,www.collegecounts529advisor.com/pdf/pds.pdf,www.collegecounts529advisor.com/accountsetup.asp,csp.ubtrust.com/paweb/logins/login.aspx?planname=aladv,www.collegecounts529advisor.com/performance.asp
1003,"Prepaid Affordable College Tuition Program - Enrollment CLOSED December 31, 2008",P.O. Box 12865,,"Birmingham, AL 35202",1-800-252-7228,1-800-252-7228,1-800-830-7390,ala.pact@treasury.alabama.gov,www.treasury.alabama.gov/pact/index.html,www.treasury.alabama.gov/pact/apply.htm,www.treasury.alabama.gov/pact/apply.htm,www.treasury.alabama.gov/pact/access_account.htm,
1004,UA College Savings Plan,PO Box 17479,,"Baltimore, MD 21297-1479",1-800-478-0003,1-800-478-0003,,info@uacollegesavings.com,www.uacollegesavings.com/,www.uacollegesavings.com/,www.uacollegesavings.com/public/ua529/Open-An-Account,www3.troweprice.com/aaweb1/accountAccess/publicLogin.do?pdurl=/aaweb1/accountAccess/ua529.do,www.uacollegesavings.com/public/ua529/Our-Plan/Performance
1005,T. Rowe Price College Savings Plan,PO Box 17300,,"Baltimore, MD 21298-8670",866-521-1894,866-521-1894,,collegesavings@troweprice.com,www.price529.com/,www3.troweprice.com/retailtools3/literatureRequest/public/secure/litPdfDownload.do?pdfContentId=ec61116e93d0b110VgnVCM1000001bde400aRCRD&agreement=notRequired&scn=takeAction&pdfName=trp529Disclosure.pdf,www3.financialtrans.com/tf/FANWeb?tx=Disclaim&cz=d19171513001908141300112715&returnURL=NASU,www3.troweprice.com/aaweb1/accountAccess/publicLogin.do?pdurl=/aaweb1/accountAccess/index.do,"www.troweprice.com/common/indexHtml3/0,0,htmlid=103,00.html?src=n529acq_ExistingCustomers"
1006,John Hancock Freedom 529,PO Box 17603,,"Baltimore, MD 21297-1603",1-866-222-7498,1-866-222-7498,,,johnhancockfreedom529.com/,johnhancockfreedom529.com/,www.johnhancockfreedom529.com/public/secure/inforequest/page/,www3.financialtrans.com/tf/FANWeb?tx=Disclaim&cz=81200132011080504,www.johnhancockfreedom529.com/public/site/performance/daily/
1007,The Gift College Investing Plan,P.O. Box 219376,,"Kansas City, MO 64121-9376",1-800-587-7301,1-800-587-7301,,clientservice@thegiftplan.com,www.thegiftplan.com/content/home.html,www.thegiftplan.com/content/downloadorrequestanenrollmentkit.html,www.thegiftplan.com/artpl/coenroll/start.do,www.thegiftplan.com/artpl/auth/loginFormAction.do?tplcb=%2Fartpl%2Facctmaint%2FacctList.do,www.thegiftplan.com/artpl/fundperform/fundPricePerform.do
1008,College Savings Bank CollegeSure® CD,"AFCSP
c/o College Savings Bank",P.O. Box 3769,"Princeton, NJ 08543",1-800-888-2723,1-800-888-2723,,info@collegesavings.com,collegesavings.com/arizona/,,collegesavings.com/arizona/enroll.csb,,
1009,The Fidelity Arizona College Savings Plan,Fidelity Arizona College Savings Plan C/O Fidelity Investments College Plan Service Center,P.O. Box 770001,"Cincinnati, OH 45277",1-800-544-1262,1-800-544-1262,,,www.fidelity.com/arizona,www.fidelity.com/arizona,www.fidelity.com/arizona,www.fidelity.com/arizona,
1010,InvestEd,6300 Lamar Avenue,,"Shawnee Mission, KS 66202",1-888-923-3355,1-888-923-3355,,,www.waddell.com/,,,,
1011,ScholarShare College Savings Plan,PO Box 55205,,"Boston, MA 02205",1-800-544-5248,1-800-544-5248,,info@scholarshare.com,www.scholarshare.com/,www.scholarshare.com/documents/ca_disclosure.pdf,www.scholarshare.com/open/index.shtml,www3.financialtrans.com/tf/FANWeb?tx=Disclaim&cz=6190800000200,www.scholarshare.com/performance/historical.shtml
1012,CollegeInvest Direct Portfolio College Savings Plan,P.O. Box 219931,,"Kansas City, MO 64121-9931",800-997-4295,800-997-4295,,,www.collegeinvest.org/,www.collegeinvest.org/our-savings-plans/direct-portfolio/direct-portfolio-forms,www.collegeinvest.org/enroll/direct-portfolio-enrollment,www.collegeinvest529.com/cotpl/auth/loginFormAction.do?tplcb=%2Fcotpl%2Facctmaint%2FacctList.do,www.collegeinvest529.com/cotpl/fundperform/fundPricePerform.do
1013,Scholars Choice College Savings Program,P.O. Box 8566,,"Boston, MA 02266",888-572-4652,888-572-4652,816-218-0408,ScholarsChoice@leggmason.com,www.scholars-choice.com/,scholarschoice.myleggmason.com/portal/server.pt?open=512&objID=1324&parentname=CommunityPage&parentid=13&mode=2&in_hi_userid=383474&cached=true,www.scholars-choice.com/,www3.financialtrans.com/tf/FANWeb?tx=Disclaim&cz=d18020714110017020714080204&dealercode=40300-000,scholarschoice.myleggmason.com/portal/server.pt?open=512&objID=1325&parentname=CommunityPage&parentid=14&mode=2&in_hi_userid=383474&cached=true
1014,CollegeInvest Smart Choice College Savings Plan,12345 W. Colfax Avenue,,"Lakewood, CO 80215",1-800-964-3444,1-800-964-3444,,,www.collegeinvest.org/,www.collegeinvest.org/our-savings-plans/smart-choice/smart-choice-forms,www.collegeinvest.org/enroll/enrollment-smart-choice,www.efirstbank.com/home.htm,www.efirstbank.com/products/checking-savings/smart-choice-college-savings.htm
1015,CollegeInvest Stable Value Plus College Savings Plan,1560 Broadway,Suite 1700,"Denver, CO 80202",1-800-448-2424,1-800-448-2424,303-296-4811,savings@collegeinvest.org,www.collegeinvest.org/,www.collegeinvest.org/our-savings-plans/stable-value-plus/stable-value-plus-investment-forms,www.collegeinvest.org/enroll/enrollment-stable-value-plus,myaccount.collegeinvest.org/pls/prod/twbkwbis.P_WWWLogin,www.collegeinvest.org/our-savings-plans/stable-value-plus/stable-value-plus-investment-options
1016,Connecticut Higher Education Trust (CHET),,P.O. Box 150499,"Hartford, CT 06115-0499",1-888-799-2438,1-888-799-2438,,,www.aboutchet.com/,www.aboutchet.com/documents/ct_disclosure.pdf,www.aboutchet.com/open/index.shtml,www3.financialtrans.com/tf/FANWeb?tx=Disclaim&cz=6190800000219,www.aboutchet.com/performance/fundperformance.shtml
1017,CHET Advisor,,,,,,,,,,,,
1018,DC College Savings Plan,,P.O. Box 11466,"Washington, DC 20008",800-987-4859,800-987-4859,,,www.dccollegesavings.com/,www.dccollegesavings.com/pdf/dc_disclosure.pdf,www.dccollegesavings.com/DCHowToEnroll.html,www3.financialtrans.com/tf/FANWeb?tx=Disclaim&cz=9020011210417190302,dc529.com/DCInvestmentPerformance.html
1019,Delaware College Investment Plan,Fidelity Investments,P.O. Box 770001,"Cincinnati, OH 45277-0036",1-800-544-1655,1-800-544-1655,,,www.fidelity.com/delaware,,personal.fidelity.com/planning/college/content/landing_de.shtml.cvsr,,
1020,Florida 529 Savings Plan,P.O. Box 6567,,"Tallahassee, FL 32314-6567",1-800-552-4723,1-800-552-4723,,,www.florida529plans.com/,,www.myfloridaprepaid.com/what-we-offer/529-savings-plan/,www.myfloridaprepaid.com/my-account/,www.myfloridaprepaid.com/what-we-offer/529-savings-plan/performance/
1021,Florida Prepaid College Plans,P.O. Box 6567,,"Tallahassee, FL 32314-6567",1-800-552-4723,1-800-552-4723,,,www.myfloridaprepaid.com/,www.myfloridaprepaid.com/what-we-offer/,enroll.myfloridaprepaid.com/,www.myfloridaprepaid.com/my-account/,
1022,Path2College 529 Plan,P.O. Box 55924,,"Boston, MA 02205-5924",877-424-4377,877-424-4377,,Path2College@treasury.ga.gov,www.path2college529.com/,www.path2college529.com/pdf/ga_discl.pdf,www.path2college529.com/open/index.shtml,www3.financialtrans.com/tf/FANWeb?tx=Disclaim&cz=6190800000600,www.path2college529.com/performance/historic.shtml
1023,HI529-Hawaii's College Savings Program,Upromise Processing Center,P.O. Box 219779,"Kansas City, MO 64121-9779",1-866-529-3343,1-866-529-3343,,clientservice@hi529.com,www.hi529.com/,a248.e.akamai.net/f/248/21630/7d/uii.s.upromise.com/rc/hawaii/images/pdf/programDescription.pdf,hi529.s.upromise.com/hitpl/colongenroll/gettingStarted.do,hi529.s.upromise.com/hitpl/auth/loginFormAction.do?tplcb=%2Fhitpl%2Facctmaint%2FacctList.do,
1024,College Savings Iowa,Treasurer of the State of Iowa,P.O. Box 219219,"Kansas City, MO 64121-9219",888-672-9116,888-672-9116,,csi@iowa.gov,www.collegesavingsiowa.com/,collegesavingsiowa.s.upromise.com/content/forms.html,collegesavingsiowa.s.upromise.com/iatpl/uii529enroll/gettingStarted.do,collegesavingsiowa.s.upromise.com/,collegesavingsiowa.s.upromise.com/iatpl/fundperform/fundPricePerform.do
1025,Iowa Advisor 529 Plan,C/O Voya Investment Management,PO Box 9659,"Providence, RI 02940-9659",800-774-5127,800-774-5127,,,www.iowaadvisor529.com/,529plans.investments.voya.com/Iowa/Lit/index.htm,529plans.investments.voya.com/Iowa/Enroll/index.htm,529plans.investments.voya.com/Iowa/Account/My-Account/index.htm,529plans.investments.voya.com/Iowa/Investments/Prices-Performance/index.htm
1026,IDeal - Idaho College Savings Program,P.O. Box 219944,,"Kansas City, MO 64121",866-433-2533,866-433-2533,,clientservice@idsaves.org,www.idsaves.org/,idsaves.s.upromise.com/content/resources_formsandlit.html,idsaves.s.upromise.com/idtpl/colongenroll/gettingStarted.do,idsaves.s.upromise.com/idtpl/auth/loginFormAction.do?tplcb=%2Fidtpl%2Facctmaint%2FacctList.do,idsaves.s.upromise.com/idtpl/fundperform/fundPricePerform.do
1027,College Illinois!® Prepaid Tuition Program,PO Box 19291,,"Springfield, IL 62794-9291",877-877-3724,877-877-3724,217-785-6242,isac.529info@isac.illinois.gov,www.collegeillinois.org/,collegeillinois.org/MyAccount,,,
1028,Bright Directions College Savings Program,PO Box 82623,,"Lincoln, NE 68501-9823",866-722-7283,866-722-7283,402-323-1797,,www.brightdirections.com/,www.brightdirections.com/,,www.brightdirections.com/,www.brightdirections.com/About/investments/port_perf.asp?FeeStruct=A
1029,Bright Start College Savings Program - Direct,Bright Start,P.O. Box 5288,"Denver, CO 80217",877-432-7444,877-432-7444,,,www.brightstartsavings.com/,"www.brightstartsavings.com/www/litcenter/litCategory.do?path=1,0,0",www.brightstartsavings.com/shWebApp/pages/EnrollNow.jsf,www.brightstartsavings.com/shWebApp/pages/Login.jsf,www.brightstartsavings.com/OFI529/AP/PerformanceInfo.do?term=ytd
1030,Bright Start College Savings Program - Advisor,Bright Start,P.O. Box 5288,"Denver, CO 80217",877-432-7444,877-432-7444,,,www.brightstartadvisor.com/,"www.brightstartadvisor.com/j2ee/www/litcenter/litCategory.do?path=1,0,0&plan=ILAdvisorSold&site=den-prod-ofi529-1",www.brightstartadvisor.com/OFI529/PN/generated/en_us/PrimaryNavigation_06-02-09-210215.xml,www.brightstartadvisor.com/shWebApp/pages/Login.jsf,www.brightstartadvisor.com/OFI529/AP/PerformanceInfo.do?term=ytd
1031,CollegeChoice 529 Direct Savings Plan,P.O. Box 55767,,"Boston, MA 02205",866-485-9415,866-485-9415,,clientservice@collegechoicedirect.com,www.collegechoicedirect.com/,a248.e.akamai.net/f/248/21630/7d/529.com/rc/sr2/indiana/programdescription.pdf,collegechoicedirect.s.upromise.com/indtpl/colongenroll/gettingStarted.do,collegechoicedirect.s.upromise.com/indtpl/auth/loginFormAction.do?tplcb=%2Findtpl%2Facctmaint%2FacctList.do,collegechoicedirect.s.upromise.com/indtpl/fundperform/fundPricePerform.do
1032,CollegeChoice Advisor 529 Savings Plan,P.O. Box 55768,,"Boston, MA 02205",866-485-9413,866-485-9413,,clientservice@collegechoiceadvisor529.com,www.collegechoiceadvisor529.com/,a248.e.akamai.net/f/248/21630/7d/529.com/rc/sr2/indianaadv/programdescription.pdf,,collegechoiceadvisor529.s.upromise.com/inatpl/auth/loginFormAction.do?tplcb=%2Finatpl%2Facctmaint%2FacctList.do,collegechoiceadvisor529.s.upromise.com/inatpl/fundperform/fundPricePerform.do
1033,CollegeChoice CD 529 Savings Plan,5 Vaughn Drive,,"Princeton, NJ 08540",1-888-913-2885,1-888-913-2885,,questions@collegechoicecd.com,www.collegechoicecd.com/,,www.collegechoicecd.com/enroll.csb,,
1034,Learning Quest,P.O. Box 29202,,"Shawnee Mission, ks 66201-9202",800-579-2203,800-579-2203,,,www.learningquest.com/,www.learningquest.com/content/by_mail.html,lqd.529.com/lqdtpl/dstcolongenroll/gettingStarted.do,www.learningquest.com/content/login.html,lqd.529.com/lqdtpl/fundperform/fundPerformanceQuaterEnd.do
1035,Learning Quest Advisor,P.O. Box 2947,,"Shawnee Mission, ks 66201-1347",877-882-6236,877-882-6236,,,www.learningquest.com/,www.learningquest.com/content/forms_adv.html,,www.learningquest.com/content/login.html,lqa.529.com/lqatpl/fundperform/fundPerformanceQuaterEnd.do
1036,Schwab 529 College Savings Plan,P.O. Box 2906,,"Shawnee Mission, KS 66201-2906",888-903-3863,888-903-3863,,,www.schwab.com/529,www.schwab.com/public/schwab/investing/accounts_products/accounts/college_savings/529_plan,schwab529.529.com/swatpl/dstcolongenroll/gettingStarted.do,www.schwab.com/public/schwab/investing,www.schwab.com/public/schwab/investing/accounts_products/accounts/college_savings/529_plan
1037,Kentucky Education Savings Plan Trust (KESPT),P. O. Box 8100,,"Boston, MA 02266-8100",1-877-598-7878,1-877-598-7878,,,www.kysaves.com/,www.kysaves.com/documents/ky_disclosure.pdf,www.kysaves.com/open/index.shtml,www3.financialtrans.com/tf/FANWeb?tx=Disclaim&cz=6190800001024,www.kysaves.com/performance/historic.shtml
1038,Kentucky's Affordable Prepaid Tuition,c/o KHEAA,PO Box 798,"Frankfort, KY 40602-0798",1-888-919-5278,1-888-919-5278,1-502-696-7496,,www.getkapt.com/,www.getkapt.com/enrollment.html,www.getkapt.com/enrollment.html,www.prima-wave.com/pages/login.asp?var=16,
1039,Student Tuition Assistance and Revenue Trust (START) Saving Program,Post Office Box 91271,,"Baton Rouge, LA 70821-9271",1-800-259-5626,1-800-259-5626,225-612-6497,START@osfa.la.gov,www.startsaving.la.gov/,www.startsaving.la.gov/savings/forms.jsp,www.startsaving.la.gov/savings/enroll/interview.jsp,www.startsaving.la.gov/savings/logon/logon.jsp,
1040,The U.Plan Prepaid Tuition Program,"MEFA 160 Federal Street, 4th floor",,"Boston, MA 02110",1-800-449-6332,1-800-449-6332,617-261-9765,info@mefa.org,www.mefa.org/uplan,www.mefa.org/uplan,www.mefa.org/uplan,,
1041,The U.Fund College Investing Plan,U.Fund College Investing Plan C/O Fidelity Investments College Plan Service Center,P.O.Box 770001,"Cincinnati, OH 45277-0015",1-800-544-2776,1-800-544-2776,,,www.fidelity.com/ufund,www.fidelity.com/ufund,www.fidelity.com/ufund,www.fidelity.com/ufund,
1042,Maryland Prepaid College Trust,217 E. Redwood Street,Suite 1350,"Baltimore, MD 21202",1-888-463-4723,1-888-463-4723,410-333-2295,mpct@collegesavingsmd.org,www.collegesavingsmd.org/bt1mpct.cfm,files.collegesavingsmd.org/cspm_enrollment_kit.pdf,www.collegesavingsmd.org/bt2enroll.cfm,www.collegesavingsmd.org/account_access/account_access.cfm,
1043,Maryland College Investment Plan,P.O. Box 17479,,"Baltimore, MD 21297-1479",1-888-463-4723,1-888-463-4723,410-581-5184,info@marylandcollegeinvestmentplan.org,www.collegesavingsmd.org/,files.collegesavingsmd.org/cspm_enrollment_kit.pdf,www.collegesavingsmd.org/college-investment-plan-enroll.aspx,secure.collegesavingsmd.org/pls/prod/twbkwbis.P_WWWLogin?,www.collegesavingsmd.org/college-investment-plan-investment-performance.aspx
1044,NextGen College Investing Plan - Direct Series,PO Box 1518,,"Pennington, NJ 08534-9987",877-463-9843,877-463-9843,609-274-0711,NextGen@famemaine.com,www.nextgenplan.com/,www.nextgenplan.com/,www.nextgenplan.com/,www.nextgenplan.com/,www.nextgenplan.com/
1045,NextGen College Investing Plan - Select Series,PO Box 1518,,"Pennington, NJ 08534-9987",877-463-9843,877-463-9843,609-274-0711,NextGen@FAMEmaine.com,www.nextgenplan.com/,www.nextgenplan.com/,www.nextgenplan.com/,www.nextgenplan.com/,www.nextgenplan.com/
1046,Michigan Education Trust,P.O. Box 30198,,"Lansing, MI 48909",800-638-4543,800-638-4543,517-373-6967,treasmet@michigan.gov,www.setwithmet.com/,www.michigan.gov/documents/setwithmet/4326for2014_441085_7.pdf,"www.michigan.gov/setwithmet/0,1607,7-237-43441---,00.html",metonline.myprepaidtuition.com/login.aspx,
1047,Michigan Education Savings Program,P.O. Box 55925,,"Boston, MA 02205-5925",877-861-6377,877-861-6377,,,www.misaves.com/,www.misaves.com/pdf/mi_discl.pdf,www.misaves.com/account/open.html,www3.financialtrans.com/tf/FANWeb?tx=Disclaim&cz=6190800001208,www.misaves.com/pdf/performance.pdf
1048,MI 529 Advisor Plan,P.O. Box 55070,,"Boston, MA 02205-5070",866-529-8818,866-529-8818,,,www.mi529advisor.com/,www.mi529advisor.com/MI529Advisor/Pages/Forms.aspx,,www3.financialtrans.com/tf/FANWeb?tx=Disclaim&cz=715081202141208,www.mi529advisor.com/MI529Advisor/Pages/Performance.aspx
1049,Minnesota College Savings Plan,PO Box 55134,,"Boston, MA 02205-5134",1-877-338-4646,1-877-338-4646,,,www.mnsaves.org/,www.mnsaves.org/documents/mn_disclosure.pdf,www.mnsaves.org/account/open.html,www3.financialtrans.com/tf/FANWeb?tx=Disclaim&cz=6190800001213,www.mnsaves.org/performance/historic.shtml
1050,MOST - Missouri's 529 College Savings Plan - Direct Sold,PO Box 219212,,"Kansas City, MO 64121-9212",888-414-6678,888-414-6678,,most529@missourimost.org,www.missourimost.com/,missourimost.s.upromise.com/motpl/literatureforms/LiteratureForms.do,missourimost.s.upromise.com/motpl/colongenroll/gettingStarted.do,missourimost.s.upromise.com/motpl/colongenroll/gettingStarted.do,
1051,MOST - Missouri's 529 College Savings Plan - Advisor Sold,P.O. Box 219343,,"Kansas City, MO 64121",1-800-617-5097,1-800-617-5097,,,www.most529advisor.com/,most529advisor.s.upromise.com/content/toolsandlit.html,,most529advisor.s.upromise.com/content/overview.html,most529advisor.s.upromise.com/moatpl/fundperform/fundPricePerformAlt.do
1052,Mississippi Affordable College Savings (MACS) Direct-Sold,P.O. Box 55037,,"Boston, MA 02205-8683",1-800-486-3670,1-800-486-3670,,,www.ms529.com/home.shtml,www.collegesavingsms.com/faq_gen.html,www3.financialtrans.com/tf/FANWeb?tx=Disclaim&cz=6190800001218,www3.financialtrans.com/tf/FANWeb?tx=Disclaim&cz=6190800001218,
1053,Mississippi Prepaid Affordable College Tuition Program (MPACT),Post Office Box 120,,"Jackson, MS 39205",1-800-987-4450,1-800-987-4450,601-359-5234,collegesavings@treaury.ms.gov,www.collegesavingsmississippi.com/,www.collegesavingsmississippi.com/resources/,,www.prima-wave.com/pages/login.asp?var=05,
1054,Montana Family Education Savings Program - Bank Plan,PO Box 203101,,"Helena, MT 59620-3101",1-800-888-2723,1-800-888-2723,,montana@collegesavings.com,www.mfesp.com/,,,,
1055,Montana Family Education Savings Program - Investment Plan,PO Box 203101,,"Helena, MT 59620-3101",1-800-888-2723,1-800-888-2723,,montana@collegesavings.com,www.mfesp.com/,,,,
1056,North Carolina's National College Savings Program,P.O. Box 40877,,"Raleigh, NC 27629-0877",800-600-3453,800-600-3453,919-835-2304,savings@CFNC.org,cfnc.org/NC529,cfnc.org/NC529,cfnc.org/NC529,cfnc.org/NC529,cfnc.org/NC529
1057,College SAVE,Upromise Investments Service Center,P.O. Box 219781,"Kansas City, MO 64121-7179",866-728-3529,866-728-3529,,,www.collegesave4u.com/,collegesave4u.s.upromise.com/misc/requestKit.html,collegesave4u.s.upromise.com/ndtpl/colongenroll/gettingStarted.do,collegesave4u.s.upromise.com/,
1058,"Nebraska Educational Savings Trust ""NEST"" Direct College Savings Plan",PO Box 30276,,"Omaha, NE 68103-1376",888-993-3746,888-993-3746,617-559-8906,clientservice@NEST529Direct.com,www.nest529direct.com/,www.nest529direct.com/nedtpl/literatureforms/getPDFForm.do?cmsPDF=programdescription.pdf,www.nest529direct.com/content/enrollnow.html,www.nest529direct.com/nedtpl/auth/loginFormAction.do,www.nest529direct.com/nedtpl/fundperform/fundPricePerform.do
1059,"Nebraska Educational Savings Trust ""NEST"" Advisor College Savings Plan",PO Box 30277,,"Omaha, NE 68103-1377",888-659-6378,888-659-6378,617-559-8908,clientservice@NEST529Advisor.com,www.nest529advisor.com/,a248.e.akamai.net/f/248/21630/7d/im.uprinv.com/rc/sr2/nea/programdescription.pdf,,www.nest529advisor.com/neatpl/auth/loginFormAction.do?tplcb=%2Fneatpl%2Facctmaint%2FacctList.do,www.nest529advisor.com/neatpl/fundperform/fundPricePerform.do
1060,TD Ameritrade 529 College Savings Plan,PO Box 30278,,"Omaha, NE 68103-1378",877-408-4644,877-408-4644,617-559-8907,TDAmeritrade@NEST529.com,collegesavings.tdameritrade.com/index.asp,collegesavings.tdameritrade.com/pdfs/TDA_PDS.pdf,collegesavings.tdameritrade.com/index.asp,collegesavings.tdameritrade.com/index.asp,collegesavings.tdameritrade.com/investments/index.asp
1061,The State Farm College Savings Plan,PO Box 173865,,"Denver, CO 80217-3865",1-800-321-7520,1-800-321-7520,,,www.statefarm.com/mutual/acct_types/529.asp,www.statefarm.com/mutual/sc/forms.asp,www.statefarm.com/mutual/open.asp,,www.statefarm.com/mutual/investors/pricing_perf/perform529.asp
1062,UNIQUE College Investing Plan,Fidelity Investments,P.O. Box 770001,"Cincinnati, OH 45277-0036",1-800-544-1914,1-800-544-1914,,,www.fidelity.com/unique,personal.fidelity.com/planning/pdf/6167aagt.pdf,personal.fidelity.com/planning/college/content/landing_NH.shtml.cvsr,personal.fidelity.com/planning/college/content/open_a_529_account_download.shtml?state=NH,
1063,Fidelity Advisor 529 Plan,Fidelity Investments,P.O. Box 770002,"Cincinnati, OH 45277-0036",1-800-544-9999,1-800-544-9999,,,advisor.fidelity.com/,,,www.advisor.fidelity.com/,
1064,Franklin Templeton 529 College Savings Plan,P.O. Box 33090,,"St. Petersburg, FL 33733-8090",866-362-1597,866-362-1597,,,www.franklintempleton.com/retail/app/navigation/views/sec_landingPage.jsf?title=sel529Plan,www.franklintempleton.com/retail/jsp_app/lit/orderlit_order.jsp?CategoryId=COLLEGEPLANNING&SubCategoryId=COL02&SearchType=CATEGORY,www.franklintempleton.com/retail/pages/generic_content/prog_serv/529/pub/open_529_acct.jsf,www.franklintempleton.com/retail/app/navigation/views/sec_landingPage.jsf?title=sel529Plan,www.franklintempleton.com/retail/pages/generic_content/prog_serv/529/pub/performance.jsf#c1-1
1065,NJBEST 529 College Savings Plan,P.O. Box 33090,,"St. Petersburg, FL 33733-8090",877-465-2378,877-465-2378,,NJBEST@HESAA.org,www.njbest.com/,www.njbest.com/saving-for-college/,www.njbest.com/njbest/enroll,www.njbest.com/,www.njbest.com/about-njbest/performance-and-pricing.html
1066,The Education Plan,PO Box 173691,,"Denver, CO 80217",1-877-337-5268,1-877-337-5268,1-303-768-6529,,www.theeducationplan.com/,"www.theeducationplan.com/j2ee/www/litcenter/litCategory.do?path=0,0,0&plan=NMDirectSold&site=den-prod-ofi529-1",www.theeducationplan.com/OFI529/PN/generated/en_us/PrimaryNavigation_11-20-08-081833.xml,www.theeducationplan.com/shWebApp/pages/Login.jsf,www.theeducationplan.com/OFI529/AP/PerformanceInfo.do?term=ytd
1067,Scholar'sEdge,P.O. Box 173691,,"Denver, CO 80217",866-529-7283,866-529-7283,303-768-6529,,www.scholarsedge529.com/,"www.scholarsedge529.com/j2ee/www/litcenter/litCategory.do?path=0,0,0&plan=NMAdvisorSold&site=den-prod-ofi529-1",www.scholarsedge529.com/OFI529/PN/generated/en_us/PrimaryNavigation_05-26-09-175422.xml,www.scholarsedge529.com/shWebApp/pages/Login.jsf,www.scholarsedge529.com/OFI529/AP/PerformanceInfo.do?term=ytd
1068,Nevada Prepaid Tuition Program,555 East Washington Ave.,Suite 4600,"Las Vegas, NV 89101",1-888-477-2667,1-888-477-2667,702-486-3246,prepaidtuition@nevadatreasurer.gov,nvprepaid.gov/,www.nvprepaid.gov/,nvprepaid.gov/,nvprepaid.gov/,
1069,SSgA Upromise 529 Plan,P.O. Box 55578,,"Boston, MA 02205",1-800-587-7305,1-800-587-7305,,clientservice@ssga.upromise529.com,www.ssga.upromise529.com/,cdn.unite529.com/f/248/21630/7d/im.uprinv.com/rc/sr2/ucf/programDescription.pdf,www.ssga.upromise529.com/ucftpl/uii529enroll/gettingStarted.do,www.ssga.upromise529.com/ucftpl/auth/loginFormAction.do?tplcb=%2Fucftpl%2Facctmaint%2FacctList.do,www.ssga.upromise529.com/ucftpl/fundperform/fundPricePerform.do
1070,The Vanguard 529 College Savings Plan,P.O. Box 55111,,"Boston, MA 02205",1-866-734-4530,1-866-734-4530,,VGI529@vanguard.com,personal.vanguard.com/us/whatweoffer/college/vanguard529,,,,
1071,USAA College Savings Plan,P.O. Box 55354,,"Boston, MA 02205",1-800-292-8825,1-800-292-8825,,,www.usaa.com/inet/pages/investments_college_savings_529plan,,,,
1072,New York's 529 College Savings Program Direct Plan,PO Box 55440,,"Boston, MA 02205",1-877-697-2837,1-877-697-2837,,NY529@nysaves.org,www.nysaves.org/,uii.nysaves.s.upromise.com/nytpl/literatureforms/getPDFForm.do?pdf=enrollKit.pdf,uii.nysaves.s.upromise.com/nytpl/displayServlet?su=ny.3.3,uii.nysaves.s.upromise.com/nytpl/acctmaint/acctList.do,
1073,New York's 529 Advisor-Guided College Savings Program,P.O. Box 55498,,"Boston, MA 02205-5498",800-774-2108,800-774-2108,,,www.ny529advisor.com/,www.ny529advisor.com/,,www.ny529advisor.com/,
1074,CollegeAdvantage Direct 529 Savings Plan,P.O. Box 219305,,"Kansas City, MO 64121-9305",800-233-6734,800-233-6734,,info@CollegeAdvantage.com,www.collegeadvantage.com/,www.collegeadvantage.com/docs/enrollment-forms/offering-statement-and-participation-agreement.pdf,www.collegeadvantage.com/request-enrollment-forms,www.mycollegeadvantagedirect.com/ohtpl/auth/loginFormAction.do?tplcb=%2Fohtpl%2Facctmaint%2FacctList.do,www.collegeadvantage.com/docs/investment-option-selection-guide/investment_option_selection_guide.pdf
1075,"CollegeAdvantage Advisor 529, offered by BlackRock",P.O. Box 9783,,"Providence, RI 02940-9783",1-866-529-8582,1-866-529-8582,,,www.blackrock.com/collegeadvantage,www.blackrock.com/collegeadvantage,,,www.blackrock.com/collegeadvantage
1076,Oklahoma College Savings Plan,P. O. Box 8193,,"Boston, MA 02266-8193",1-877-654-7284,1-877-654-7284,,,www.ok4saving.org/,,www.ok4saving.org/account/open.html,www3.financialtrans.com/tf/FANWeb?tx=Disclaim&cz=6190800001410,
1077,MFS 529 Savings Plan,"MFS Service Center, Inc.",P.O. Box 55824,"Boston, MA 02205-5824",1-866-529-1637,1-866-529-1637,,,annex.mfs.com/subs/oregon/index.html,,,,
1078,Oregon College Savings Plan,P.O. Box 55914,,"Boston, MA 02205-5914",1-866-772-8464,1-866-772-8464,,,www.oregoncollegesavings.com/,www.oregoncollegesavings.com/documents/or_disclosure.pdf,www.oregoncollegesavings.com/open/index.shtml,www3.financialtrans.com/tf/FANWeb?tx=Disclaim&cz=6190800001417,www.oregoncollegesavings.com/performance/index.shtml
1079,PA 529 Guaranteed Savings Plan,Processing Center,P.O. Box 55463,"Boston, MA 02205-8114",1-800-440-4000,1-800-440-4000,1-781-707-8829,pagsp@patreasury.gov,www.pa529.com/,www.pa529.com/lib/pdf/GSP-Disclosure-Statement.pdf,www.mypa529gspaccount.com/gsptpl/uii529enroll/gettingStarted.do,www.mypa529gspaccount.com/gsptpl/auth/loginFormAction.do?tplcb=%2Fgsptpl%2Facctmaint%2FacctList.do,
1080,PA 529 Investment Plan,Processing Center,P.O. Box 55378,"Boston, MA 02205-5378",800-440-4000,800-440-4000,,PAIP@patreasury.gov,www.pa529.com/,www.pa529.com/lib/pdf/IP-Disclosure-Statement.pdf,www.mypa529ipaccount.com/patpl/uii529enroll/gettingStarted.do,www.mypa529ipaccount.com/patpl/auth/loginFormAction.do?tplcb=%2Fpatpl%2Facctmaint%2FacctList.do,www.mypa529ipaccount.com/patpl/fundperform/fundPricePerform.do
1081,CollegeBoundfund - Advisor-sold plan,PO Box 786008,,"San Antonio, TX 78278-9923",888-324-5057,888-324-5057,,,www.collegeboundfund.com/,"www.alliancebernstein.com/ABCOM/segment_homepages/investments/us/literature_forms_result.htm?dsNav=Ro:0,Aro:0,Ns:p.title%7c101%7c1%7c,N:4294966645,Nr:AND(OR(4294967258%2c4294967283))",,www.alliancebernstein.com/abcom/web/LinkedSite.aspx?key=ab.retail.INVaccts.cbf,www.alliancebernstein.com/abcom/product_center/abi_home/pricing_performance.htm?ptab=CollegeBoundFund
1082,CollegeBoundfund - Direct-sold plan,PO Box 786008,,"San Antonio, TX 78278-9923",888-324-5057,888-324-5057,,,www.collegeboundfund.com/ri,www.alliancebernstein.com/investments/us/DesktopContainer.aspx?nid=5383,www.alliancebernstein.com/ri/home.aspx?cid=49982&nid=0&sid=46,www.alliancebernstein.com/investments/us/LinkedSite.aspx?secure=true&cid=17515,www.alliancebernstein.com/abcom/product_center/abi_home/pricing_performance.htm?ptab=CollegeBoundFund
1083,Future Scholar 529 College Savings Plan - Advisor Program,PO Box 8036,,"Boston, MA 02266-8036",Ph 888-244-5674,888-244-5674,,serviceinquiries@columbiamanagement.com,www.futurescholar.com/UserRelationship/UserRelationshipPage.htm,www.futurescholar.com/FormsAndLiterature/ViewAndOrderLit/LitDetails?Category={16051779-6B97-4089-AE13-276501ADB017},www.futurescholar.com/FormsAndLiterature/ViewAndOrderLit/LitDetails?Category={16051779-6B97-4089-AE13-276501ADB017},www3.financialtrans.com/tf/FANWeb?tx=Disclaim&cz=a02141120120108001802,
1084,SC Tuition Prepayment Program (SCTPP),PO Box 11778,,"Columbia, SC 29211",1-888-772-4723,1-888-772-4723,1-800-519-4652,kristi.elrod@sto.sc.gov,www.sctpp.sc.gov/,www.sctpp.sc.gov/contractdocuments/,www.sctpp.sc.gov/frequentlyaskedquestions/,www.prima-wave.com/redirectsc.asp,
1085,Future Scholar 529 College Savings Plan - Direct Investment Program,PO Box 8036,,"Boston, MA 02266-8036",888-244-5674,888-244-5674,,serviceinquiries@columbiamanagement.com,www.futurescholar.com/UserRelationship/UserRelationshipPage.htm,www.futurescholar.com/FormsAndLiterature/ViewAndOrderLit/LitDetails?Category={0C8F4F74-B9CC-4D1F-B8A7-C26F4A42A470},www.futurescholar.com/FormsAndLiterature/ViewAndOrderLit/LitDetails?Category={76290757-8237-450F-AC22-A20285287963},www3.financialtrans.com/tf/FANWeb?tx=Disclaim&cz=a02141120120108001802,
1086,CollegeAccess 529,P.O. Box 55769,,"Boston, MA 02205-5769",1-866-529-7462,1-866-529-7462,,,www.collegeaccess529.com/,www.collegeaccess529.com/Pages/LiteratureandForms.aspx,www.collegeaccess529.com/Pages/LiteratureandForms.aspx,www3.financialtrans.com/tf/Vision?tx=VisStartup&cz=6210818081413,www.collegeaccess529.com/Pages/Performance.aspx
1087,TNStars College Savings 529 Program,P.O. Box 198801,,"Nashville, TN 37219",855-386-7827,855-386-7827,615-401-6816,TN.Stars@tn.gov,tnstars.com/,,tnstars.com/forms/,secure.tnstars529program.com/paweb/logins/login.aspx?planname=TNstars529,
1088,Tennessee Baccalaureate Education System Trust Prepaid Plan,P.O. Box 198786,,"Nashville, TN 37219-8786",1-888-486-2378,1-888-486-2378,615-401-6816,BEST.office@state.tn.us,www.tnbest.org/,www.treasury.state.tn.us/best/index.htm,,,
1089,Texas Tuition Promise Fund,PO Box 44306,,"Jacksonville, FL 32231-4306",800-445-4723,800-445-4723,800-516-4652,,www.texastuitionpromisefund.com/,"www.texastuitionpromisefund.com/j2ee/www/litcenter/litCategory.do?path=0,0,0",www.texastuitionpromisefund.com/OFI529/PN/generated/en_us/PrimaryNavigation_07-09-08-170201.xml,www.texastuitionpromisefund.com/,www.texastuitionpromisefund.com/content/tips-tools/forms-materials
1090,Texas College Savings Plan,PO Box 173881,,"Denver, CO 80217",800-445-4723,800-445-4723,303-768-6529,,www.texascollegesavings.com/,www.texascollegesavings.com/litcenter/529/txdirectsold/literature?site=den-prod-529-2&plan=TXDirectSold,www.texascollegesavings.com/OFI529/BI/enroll.jsp,www.texascollegesavings.com/,www.texascollegesavings.com/OFI529/AP/PerformanceInfo.do?term=ytd
1091,Texas Guaranteed Tuition Plan,PO Box 13407,,"Austin, TX 78711-3407",800-445-4723,800-445-4723,512-475-0081,texas.tomorrow@cpa.state.tx.us,www.tgtp.org/,,www.tgtp.org/,secure.texastomorrowfunds.org/pls/prod/twbkwbis.p_wwwlogin,
1092,LoneStar 529 Plan,PO Box 173881,,"Denver, CO 80217",800-445-4723,800-445-4723,303-768-6529,,www.lonestar529.com/,www.lonestar529.com/litcenter/529/txadvisorsold/literature?site=den-prod-529-1&plan=TXAdvisorSold,www.lonestar529.com/OFI529/BI/enroll.jsp,www.lonestar529.com/shWebApp/pages/Login.jsf,www.lonestar529.com/OFI529/AP/PerformanceInfo.do?term=ytd
1093,Utah Educational Savings Plan,PO Box 145100,,"Salt Lake City, UT 84114-5100",800-418-2551,800-418-2551,800-214-2956,info@uesp.org,www.uesp.org/,www.uesp.org/forms.html,login.uesp.org/setup/AccountType.aspx,login.uesp.org/Login.aspx?ReturnUrl=%2fDefault.aspx,www.uesp.org/returns.html
1094,Virginia529 inVEST,9001 Arboretum Parkway,,"North Chesterfield, VA 23236",1-888-567-0540,1-888-567-0540,1-866-757-1295,customerservice@virginia529.com,www.virginia529.com/,www.virginia529.com/forms/index.php,www.virginia529.com/enroll/index.php,myaccount.virginia529.com/pls/prod/twpkwbis.P_wwwlogin,www.virginia529.com/invest/performance/index.php
1095,Virginia529 prePAID,9001 Arboretum Parkway,,"North Chesterfield, VA 23236",1-888-567-0540,1-888-567-0540,1-866-757-1295,customerservice@virginia529.com,www.virginia529.com/,www.virginia529.com/documents/index.php,www.virginia529.com/enroll/index.php,myaccount.virginia529.com/pls/prod/twpkwbis.P_wwwlogin,
1096,CollegeAmerica,American Funds Service Company,P.O. Box 2280,"Norfolk, VA 23501-2280",1-800-421-4225,1-800-421-4225,,,www.americanfunds.com/college.html,www.americanfunds.com/pdf/cagebr-001_529pd.pdf,,www.americanfunds.com/,
1097,CollegeWealth,9001 Arboretum Parkway,,"North Chesterfield, VA 23236",1-888-567-0540,1-888-567-0540,1-866-757-1295,customerservice@virginia529.com,www.virginia529.com/,www.virginia529.com/collegewealth/index.php,www.virginia529.com/collegewealth/index.php,myaccount.virginia529.com/pls/prod/twpkwbis.P_wwwlogin,
1098,Vermont Higher Education Investment Plan,P.O. Box 8101,,"Boston, MA 02266-8101",1-800-637-5860,1-800-637-5860,,,services.vsac.org/ilwwcm/connect/VSAC/Save+for+College,www.vsac-vheip.org/pdf/vt_disc.pdf,www3.financialtrans.com/tf/FANWeb?tx=Disclaim&cz=6190800002119,www3.financialtrans.com/tf/FANWeb?tx=Disclaim&cz=6190800002119,
1099,Guaranteed Education Tuition (GET),PO Box 43450,,"Olympia, WA 98504-3450",800-955-2318,800-955-2318,360-704-6200,GETInfo@wsac.wa.gov,www.get.wa.gov/,www.get.wa.gov/brochuresandforms.shtml,fortress.wa.gov/wsac/getportal/Anonymous/AnonymousPage.aspx?page=orderForm,fortress.wa.gov/wsac/getportal/Login.aspx,
1100,Edvest College Savings Plan,P.O. Box 55189,,"Boston, MA 02205-5189",1-888-338-3789,1-888-338-3789,,edvest@wisconsin.gov,www.edvest.com/,www.edvest.com/documents/wi_disclosure.pdf,edvest.com/open/index.shtml,www.edvest.com/,www.edvest.com/invest/historical.shtml
1101,Tomorrow's Scholar College Savings Plan,c/o Voya Investment Management,P.O. Box 9883,"Providence, RI 02940-9984",1-866-677-6933,1-866-677-6933,,,www.tomorrowsscholar.com/,529plans.investments.voya.com/idc/groups/public/documents/investor_education/fundspace_w529-plandoc.pdf,529plans.investments.voya.com/Wisconsin/index.htm,www.tomorrowsscholar.com/,529plans.investments.voya.com/Wisconsin/Investments/Prices-Performance/index.htm
1102,SMART529 WV Direct,PO Box 55362,,"Boston, MA 02205",866-574-3542,866-574-3542,,,www.smart529.com/,www.smart529.com/cs/Satellite?c=Page&cid=1150849738717&pagename=College_Savings%2FPage%2FCS_CommonPage#info-1150850000145,www.smart529.com/cs/Satellite?c=Page&cid=1150849738717&pagename=College_Savings%2FPage%2FCS_CommonPage#info-1150850000145,www.smart529direct.com/wvdtpl/auth/loginFormAction.do?tplcb=%2Fwvdtpl%2Facctmaint%2FacctList.do,www.smart529.com/cs/Satellite?blobcol=urldata&blobheader=application%2Fpdf&blobheadername1=Content-Disposition&blobheadervalue1=inline%3B+filename%3D529D.pdf&blobkey=id&blobnocache=false&blobtable=MungoBlobs&blobwhere=1291062949682&ssbinary=true
1103,SMART529 Select,PO Box 55371,,"Boston, MA 02205",866-574-3542,866-574-3542,,,www.smart529select.com/,www.smart529select.com/servlet/Satellite?c=Page&cid=1150848332471&pagename=College_Savings%2FPage%2FCS_CommonPage,www.smart529select.com/servlet/Satellite?c=Page&cid=1150847529333&pagename=College_Savings%2FPage%2FCS_CommonPage,www.select529wv.com/wvstpl/auth/loginFormAction.do?tplcb=%2Fwvstpl%2Facctmaint%2FacctList.do,www.smart529select.com/servlet/Satellite?c=Page&cid=1150848332471&pagename=College_Savings%2FPage%2FCS_CommonPage
1104,The Hartford SMART529,PO Box 55359,,"Boston, MA 02205",866-574-3542,866-574-3542,,,www.hartfordfunds.com/college-saving/overview-smart-529.individual-investors.html,www.hartfordfunds.com/dam/en/docs/pub/forms/collegesavingforms/thehartfordSMART529forms/enrollment/529-OFF.pdf,www.hartfordfunds.com/college-saving/overview-smart-529.individual-investors.html,www.smart529advisor.com/wvatpl/auth/loginFormAction.do?tplcb=%2Fwvatpl%2Facctmaint%2FacctList.do,www.hartfordfunds.com/college-saving/overview-smart-529/performance-rates.individual-investors.html#content0-tab
